"Sieci handlowe",1454
"Mieszkaniowe / Przemysłowe",1415
"Transport i zarządzanie flotą",502
"Wyposażenie domu i biura",474
"Wsparcie administracyjne",1536
"Planowanie / Prognozowanie",605
"Sprzedawcy",1025
"Analiza biznesowa",1487
"Category Management",344
"Księgowość",3081
"Chemia / Kosmetyki",773
"IT / Telekomunikacja",1309
"Przychodzące",338
"Mechanika",719
"Usługi profesjonalne",7136
"Usługi kurierskie",91
"Rolnictwo",263
"Instalacje",859
"Magazynowanie",1040
"Windykacja",132
"Reklama / Copywriting / Kreacja",244
"Zapewnienie jakości",642
"Zarządzanie produktem",285
"Redakcja / Dziennikarstwo",82
"Rynki kapitałowe",126
"Kontroling",1549
"Merchandising",252
"Lekarze / Opieka medyczna",386
"Utrzymanie czystości",79
"Ekologiczne",52
"Pracownicy rolni",33
"Szkolenia / Rozwój",436
"Administrowanie systemami",1696
"Rekrutacja / Employer Branding",874
"Bezpieczeństwo / Porządek Publiczny",18
"Nieprodukcyjne / Usługi",529
"Zarządzanie projektem",1063
"Monterzy / Serwisanci",1369
"Wychodzące",267
"Kurierzy / Dostawcy",254
"Kampanie marketingowe / Eventy",231
"Energetyka konwencjonalna i odnawialna",173
"Szkolnictwo",237
"Komunikacja marketingowa",695
"Wewnętrzny PR",53
"Odzież / Dodatki / Biżuteria",419
"Artykuły przemysłowe / AGD / RTV",481
"Mechanicy / Blacharze / Lakiernicy",274
"Spedycja",759
"Kasjerzy",445
"Farmacja / Medycyna",1661
"Artykuły spożywcze",81
"Analiza / Ryzyko",513
"Kadry / Wynagrodzenia",880
"Tworzenie stron WWW / Technologie internetowe",365
"Grafika / Fotografia / DTP",238
"Wprowadzanie / Przetwarzanie danych",1167
"Produkcyjne",504
"Inżynieria",174
"Wdrożenia ERP",453
"Media społecznościowe",223
"Wsparcie techniczne / Helpdesk",1234
"Produkcja i realizacja",48
"FMCG",193
"Chemia przemysłowa",236
"Infrastrukturalne",1129
"Budownictwo",29
"Nieruchomości",43
"Finanse",283
"Edukacja / Szkolenia",56
"Zarządzanie biurem i administracją",338
"Ubezpieczenia",64
"Szkolenia / Rozwój osobisty",302
"Elektronika / Elektryka",1482
"Zarządzanie produkcją",886
"Wsparcie usług prawnych",349
"Utrzymanie ruchu",779
"Hotelarstwo",146
"Nafta i gaz",14
"Finanse / Bankowość / Ubezpieczenia",2873
"Badania marketingowe",166
"Telekomunikacja",213
"Artykuły spożywcze / Alkohol / Tytoń",1437
"Doradztwo / Konsulting",767
"Projektowanie",1240
"Farmaceutyka / Biotechnologia",396
"Nadzór",239
"Apteka",228
"Pracownicy produkcji",988
"Marketing internetowy i mobilny",587
"Turystyka / Hotelarstwo / Katering",221
"Marketing handlowy",259
"Odnawialna",126
"Analiza",2841
"Lotnictwo",31
"BHP",42
"IT/Telekomunikacja",88
"Specjaliści / Konsultanci",251
"Pośrednictwo finansowe",162
"Nieruchomości / Budownictwo",902
"Inne",2377
"Finanse / Bankowość",66
"Obsługa hotelowa",8
"Usługi dla klienta indywidualnego",132
"Bankowość korporacyjna / SME",299
"Zarządzanie usługami",246
"Tworzywa sztuczne",37
"Animacja komputerowa / Webdesign",128
"Testowanie",1009
"Architektura",1451
"Sport / Rekreacja",47
"Gastronomia",7
"Marketing bezpośredni",93
"Tłumaczenia / Korekta",91
"Prawnik",247
"Administrowanie bazami danych i storage",550
"Specjaliści / Urzędnicy",169
"Katering / Restauracje / Gastronomia",120
"Turystyka",93
"Kierowcy",554
"Sprzedaż / e-Commerce",319
"Utrzymanie / Zarządzanie nieruchomościami",370
"Analizy / Ryzyko / Aktuariat",71
"Energia / Środowisko",805
"Programowanie",3168
"Biznes/Strategia",319
"Architektura / Projektowanie",776
"Agencje celne",62
"Konwencjonalna",60
"Ubezpieczenia na życie",354
"Bankowość inwestycyjna",272
"Wynajem/Wycena",242
"Ubezpieczenia majątkowe",380
"Inżynieria / Technika / Produkcja",3720
"Monterzy / Serwisanci / Elektrycy",960
"Pracownicy gastronomii",87
"Zarządzanie HR",689
"Zarządzanie jakością",502
"Logistyka / Optymalizacja",1433
"Zarządzanie marketingiem",196
"E-marketing / SEM / SEO",485
"Automatyka",789
"Pracownicy magazynowi",1053
"Nauka języków obcych",36
"Ekspansja / Rozwój / Zarządzanie projektem",366
"Zewnętrzny PR",90
"Konstrukcja / Technologie",1086
"Pracownicy produkcyjni",982
"Podatki / prawo",171
"Stanowiska asystenckie",670
"Zamówienia publiczne",110
"Administrowanie sieciami",640
"Marketing / Reklama / Media",300
"Sekretariat / Recepcja",396
"Planowanie i zakup mediów",23
"Optymalizacja procesu produkcji",1394
"Business Intelligence / Data Warehouse",485
"Bankowość detaliczna",551
"Audyt / Podatki",1349
"Motoryzacja / Transport",959
"Zarządzanie marką",138
"Pracownicy budowlani",338
"Pracownicy ochrony",47
"Organizacja i obsługa imprez",27
"Sektor publiczny",18
"Kontrola / Nadzór",53
"Kosmetyka / Fryzjerstwo",103
"Fryzjer / Kosmetyczka",14
"Specjaliści",308
"Energetyczne",249
"Motoryzacja",222
"Bezpieczeństwo / Audyt",318
