"id","extra_data/pool/name","tags/property/0","properties/description","properties/url"
"257","","","reed.co.uk: XML all ads - 'Registration 0.00'","http://dummy"
"258","","","reed.co.uk: XML all ads - 'Registration 0.10'","http://dummy"
"259","","","reed.co.uk: XML all ads - 'Registration 0.11'","http://dummy"
"260","","","reed.co.uk: XML all ads - 'Registration 0.12'","http://dummy"
"261","","","reed.co.uk: XML all ads - 'Registration 0.13'","http://dummy"
"262","","","reed.co.uk: XML all ads - 'Registration 0.14'","http://dummy"
"263","","","reed.co.uk: XML all ads - 'Registration 0.15'","http://dummy"
"264","","","reed.co.uk: XML all ads - 'Registration 0.16'","http://dummy"
"265","","","reed.co.uk: XML all ads - 'Registration 0.17'","http://dummy"
"266","","","reed.co.uk: XML all ads - 'Registration 0.18'","http://dummy"
"267","","","reed.co.uk: XML all ads - 'Registration 0.19'","http://dummy"
"268","","","reed.co.uk: XML all ads - 'Registration 0.20'","http://dummy"
"269","","","reed.co.uk: XML all ads - 'Registration 0.21'","http://dummy"
"270","","","reed.co.uk: XML all ads - 'Registration 0.22'","http://dummy"
"271","","","reed.co.uk: XML all ads - 'Registration 0.23'","http://dummy"
"272","","","reed.co.uk: XML all ads - 'Registration 0.24'","http://dummy"
"273","","","reed.co.uk: XML all ads - 'Registration 0.25'","http://dummy"
"274","","","reed.co.uk: XML all ads - 'Registration 0.26'","http://dummy"
"275","","","reed.co.uk: XML all ads - 'Registration 0.27'","http://dummy"
"276","","","reed.co.uk: XML all ads - 'Registration 0.28'","http://dummy"
"277","","","reed.co.uk: XML all ads - 'Registration 0.29'","http://dummy"
"279","","","reed.co.uk: XML all ads - 'Registration 0.30'","http://dummy"
"280","","","reed.co.uk: XML all ads - 'Registration Other'","http://dummy"
"282","","","reed.co.uk: XML all ads - 'Low response 0.00'","http://dummy"
"283","","","reed.co.uk: XML all ads - 'Low response 0.10'","http://dummy"
"284","","","reed.co.uk: XML all ads - 'Low response 0.11'","http://dummy"
"285","","","reed.co.uk: XML all ads - 'Low response 0.12'","http://dummy"
"288","","","reed.co.uk: XML all ads - 'Low response 0.13'","http://dummy"
"289","","","reed.co.uk: XML all ads - 'Low response 0.14'","http://dummy"
"290","","","reed.co.uk: XML all ads - 'Low response 0.15'","http://dummy"
"291","","","reed.co.uk: XML all ads - 'Low response 0.16'","http://dummy"
"292","","","reed.co.uk: XML all ads - 'Low response 0.17'","http://dummy"
"293","","","reed.co.uk: XML all ads - 'Low response 0.18'","http://dummy"
"294","","","reed.co.uk: XML all ads - 'Low response 0.19'","http://dummy"
"295","","","reed.co.uk: XML all ads - 'Low response 0.20'","http://dummy"
"297","reed-adgroup-feedonomics-uk","fetcher","reed.co.uk: XML all ads (only for fetching)","http://ftp3.feedonomics.com/ftp/fdx_7df2673b30229/reed_alljobcontent"
"298","","","reed.co.uk: XML all ads - 'Low response 0.21'","http://dummy"
"12249","","","reed.co.uk: XML all ads - 'Low response 0.22'","http://dummy"
"12250","","","reed.co.uk: XML all ads - 'Low response 0.23'","http://dummy"
"12251","","","reed.co.uk: XML all ads - 'Low response 0.24'","http://dummy"
"12252","","","reed.co.uk: XML all ads - 'Low response 0.25'","http://dummy"
"12253","","","reed.co.uk: XML all ads - 'Low response 0.26'","http://dummy"
"12254","","","reed.co.uk: XML all ads - 'Low response 0.27'","http://dummy"
"12255","","","reed.co.uk: XML all ads - 'Low response 0.28'","http://dummy"
"12256","","","reed.co.uk: XML all ads - 'Low response 0.29'","http://dummy"
"12257","","","reed.co.uk: XML all ads - 'Low response 0.30'","http://dummy"
"12258","","","reed.co.uk: XML all ads - 'Low response Other'","http://dummy"
"12259","","","reed.co.uk: XML all ads - 'Top 250 0.00'","http://dummy"
"12260","","","reed.co.uk: XML all ads - 'Top 250 0.10'","http://dummy"
"12261","","","reed.co.uk: XML all ads - 'Top 250 0.11'","http://dummy"
"12262","","","reed.co.uk: XML all ads - 'Top 250 0.12'","http://dummy"
"12263","","","reed.co.uk: XML all ads - 'Top 250 0.13'","http://dummy"
"12264","","","reed.co.uk: XML all ads - 'Top 250 0.14'","http://dummy"
"12265","","","reed.co.uk: XML all ads - 'Top 250 0.15'","http://dummy"
"12266","","","reed.co.uk: XML all ads - 'Top 250 0.16'","http://dummy"
"12267","","","reed.co.uk: XML all ads - 'Top 250 0.17'","http://dummy"
"12268","","","reed.co.uk: XML all ads - 'Top 250 0.18'","http://dummy"
"12269","","","reed.co.uk: XML all ads - 'Top 250 0.19'","http://dummy"
"12270","","","reed.co.uk: XML all ads - 'Top 250 0.20'","http://dummy"
"12271","","","reed.co.uk: XML all ads - 'Top 250 0.21'","http://dummy"
"12272","","","reed.co.uk: XML all ads - 'Top 250 0.22'","http://dummy"
"12273","","","reed.co.uk: XML all ads - 'Top 250 0.23'","http://dummy"
"12274","","","reed.co.uk: XML all ads - 'Top 250 0.24'","http://dummy"
"12275","","","reed.co.uk: XML all ads - 'Top 250 0.25'","http://dummy"
"12276","","","reed.co.uk: XML all ads - 'Top 250 0.26'","http://dummy"
"12277","","","reed.co.uk: XML all ads - 'Top 250 0.27'","http://dummy"
"12278","","","reed.co.uk: XML all ads - 'Top 250 0.28'","http://dummy"
"12279","","","reed.co.uk: XML all ads - 'Top 250 0.29'","http://dummy"
"12280","","","reed.co.uk: XML all ads - 'Top 250 0.30'","http://dummy"
"12281","","","reed.co.uk: XML all ads - 'Top 250 Other'","http://dummy"
"12282","reed-adgroup-uk","split","reed.co.uk: XML all ads - 'Other'","http://dummy"
"12283","","","reed.co.uk: XML all ads - 'Other 0.00'","http://dummy"
"12284","","","reed.co.uk: XML all ads - 'IT campaign'","http://dummy"
"12285","","","reed.co.uk: XML all ads - 'Retail campaign 0.00'","http://dummy"
"12286","","","reed.co.uk: XML all ads - 'Retail campaign 0.12'","http://dummy"
"15670","","","reed.co.uk: XML all ads - 'Retail campaign 0.25'","http://dummy"
"15671","reed-adgroup-uk","split","reed.co.uk: XML all ads - 'Accountancy'","http://dummy"
"15672","reed-adgroup-uk","split","reed.co.uk: XML all ads - 'Accountancy (Qualified)'","http://dummy"
"15673","reed-adgroup-uk","split","reed.co.uk: XML all ads - 'Admin, Secretarial & PA'","http://dummy"
"15674","reed-adgroup-uk","split","reed.co.uk: XML all ads - 'Apprenticeships'","http://dummy"
"16623","reed-adgroup-uk","split","reed.co.uk: XML all ads - 'Banking'","http://dummy"
"16624","reed-adgroup-uk","split","reed.co.uk: XML all ads - 'Charity & Voluntary'","http://dummy"
"29850","reed-adgroup-uk","split","reed.co.uk: XML all ads - 'Construction & Property'","http://dummy"
"29851","reed-adgroup-uk","split","reed.co.uk: XML all ads - 'Customer Service'","http://dummy"
"32347","reed-adgroup-uk","split","reed.co.uk: XML all ads - 'Education'","http://dummy"
"32348","reed-adgroup-uk","split","reed.co.uk: XML all ads - 'Energy'","http://dummy"
"32349","reed-adgroup-uk","split","reed.co.uk: XML all ads - 'Engineering'","http://dummy"
"32350","reed-adgroup-uk","split","reed.co.uk: XML all ads - 'Estate Agency'","http://dummy"
"32351","reed-adgroup-uk","split","reed.co.uk: XML all ads - 'Financial Services'","http://dummy"
"32352","reed-adgroup-uk","split","reed.co.uk: XML all ads - 'FMCG'","http://dummy"
"32353","reed-adgroup-uk","split","reed.co.uk: XML all ads - 'General Insurance'","http://dummy"
"40940","reed-adgroup-uk","split","reed.co.uk: XML all ads - 'Graduate Training & Internships'","http://dummy"
"40941","reed-adgroup-uk","split","reed.co.uk: XML all ads - 'Health & Medicine'","http://dummy"
"40942","reed-adgroup-uk","split","reed.co.uk: XML all ads - 'Hospitality & Catering'","http://dummy"
"40943","reed-adgroup-uk","split","reed.co.uk: XML all ads - 'Human Resources'","http://dummy"
"40944","reed-adgroup-uk","split","reed.co.uk: XML all ads - 'IT & Telecoms'","http://dummy"
"40945","reed-adgroup-uk","split","reed.co.uk: XML all ads - 'Legal'","http://dummy"
"40946","reed-adgroup-uk","split","reed.co.uk: XML all ads - 'Leisure & Tourism'","http://dummy"
"40947","reed-adgroup-uk","split","reed.co.uk: XML all ads - 'Manufacturing'","http://dummy"
"40948","reed-adgroup-uk","split","reed.co.uk: XML all ads - 'Marketing & PR'","http://dummy"
"40949","reed-adgroup-uk","split","reed.co.uk: XML all ads - 'Media, Digital & Creative'","http://dummy"
"40950","reed-adgroup-uk","split","reed.co.uk: XML all ads - 'Motoring & Automotive'","http://dummy"
"40951","reed-adgroup-uk","split","reed.co.uk: XML all ads - 'Purchasing'","http://dummy"
"40952","reed-adgroup-uk","split","reed.co.uk: XML all ads - 'Recruitment Consultancy'","http://dummy"
"40953","reed-adgroup-uk","split","reed.co.uk: XML all ads - 'Retail'","http://dummy"
"40954","reed-adgroup-uk","split","reed.co.uk: XML all ads - 'Sales'","http://dummy"
"40955","reed-adgroup-uk","split","reed.co.uk: XML all ads - 'Scientific'","http://dummy"
"40956","reed-adgroup-uk","split","reed.co.uk: XML all ads - 'Security & Safety'","http://dummy"
"40957","reed-adgroup-uk","split","reed.co.uk: XML all ads - 'Social Care'","http://dummy"
"40958","reed-adgroup-uk","split","reed.co.uk: XML all ads - 'Strategy & Consultancy'","http://dummy"
"40959","reed-adgroup-uk","split","reed.co.uk: XML all ads - 'Training'","http://dummy"
"40960","reed-adgroup-uk","split","reed.co.uk: XML all ads - 'Transport & Logistics'","http://dummy"
"41409","","","reed.co.uk: XML all ads - Reed jobs 0.50","dummy"
"41503","","","reed.co.uk: XML all ads - HMPrison","dummy"
"42000","","","reed.co.uk: XML all ads - 'Retail campaign 0.30'","http://dummy"
"51019","reed-adgroup-uk","fetcher","reed.co.uk: XML all ads 2 (Only for fetching)","https://clickcastfeeds.s3.amazonaws.com/6c084afdf4e4ae3f8e8c2aa0402dc3de/cdd444008235567ee20c7835982c7bc4.xml"
"51020","reed-adgroup-uk","split","reed.co.uk: XML all ads - 'Engineering Surveyor Scotland'","http://dummy"
"51021","reed-adgroup-uk","split","reed.co.uk: XML all ads - 'Education Teacher SW England'","http://dummy"
"51022","reed-adgroup-uk","split","reed.co.uk: XML all ads - 'Financial services Paraplanner SW England'","http://dummy"
"51023","reed-adgroup-uk","split","reed.co.uk: XML all ads - 'Engineering Surveyor SE England'","http://dummy"
"51024","reed-adgroup-uk","split","reed.co.uk: XML all ads - 'HS Physiotherapist SE England'","http://dummy"
"51025","reed-adgroup-uk","split","reed.co.uk: XML all ads - 'Hospitality Chef SE England'","http://dummy"
"51026","reed-adgroup-uk","split","reed.co.uk: XML all ads - 'Others'","http://dummy"
"55068","reed-adgroup-uk","split","reed.co.uk: XML all ads - 'Hospitality Test - Per Hour'","http://dummy"
"55069","reed-adgroup-uk","split","reed.co.uk: XML all ads - 'Hospitality Test - Per day'","http://dummy"
"55070","reed-adgroup-uk","split","reed.co.uk: XML all ads - 'Hospitality Test - Per Annum'","http://dummy"
"68979","reed-adgroup-uk","split","reed.co.uk: XML all ads - 'Boost - Halfords'","http://dummy"
"68980","reed-adgroup-feedonomics-uk","split","reed.co.uk: XML all ads - 'Group 5 (Health and Social Care)'","http://dummy"
"78414","reed-adgroup-uk","split","reed.co.uk: XML all ads - 'KD 3 Testing'","http://dummy"
"94357","reed-adgroup-uk","split","reed.co.uk: XML all ads - 'Developer Roles 0.23'","http://dummy"
"106708","reed-adgroup-uk","split","reed.co.uk: XML all ads - 'Developer Roles 2 0.23'","http://dummy"
"106709","reed-adgroup-uk","split","reed.co.uk: XML all ads - 'Tier 1'","http://dummy"
"106710","reed-adgroup-uk","split","reed.co.uk: XML all ads - 'Tier 2'","http://dummy"
"106711","reed-adgroup-uk","split","reed.co.uk: XML all ads - 'Tier 3'","http://dummy"
"111580","reed-adgroup-uk","split","reed.co.uk: XML all ads - 'Developer Roles 0.26'","http://dummy"
"111581","reed-adgroup-uk","split","reed.co.uk: XML all ads - 'Developer Roles 2 0.26'","http://dummy"
"116353","reed-adgroup-uk","split","reed.co.uk: XML all ads - 'Organic'","http://dummy"
"118509","reed-adgroup-feedonomics-uk","split","reed.co.uk: XML all ads - 'Group 13 (Security and Safety)'","http://dummy"
"120634","reed-adgroup-feedonomics-uk","split","reed.co.uk: XML all ads - 'Group 6 (Hospitality)'","http://dummy"
"120635","reed-adgroup-feedonomics-uk","split","reed.co.uk: XML all ads - 'Group 9 (Legal)'","http://dummy"
"123546","reed-adgroup-feedonomics-uk","split","reed.co.uk: XML all ads - 'Group 3 (Engineering)'","http://dummy"
"123547","reed-adgroup-feedonomics-uk","split","reed.co.uk: XML all ads - 'Group 7 (Human Resources)'","http://dummy"
"123548","reed-adgroup-feedonomics-uk","split","reed.co.uk: XML all ads - 'Group 11 (Marketing and Media)'","http://dummy"
"125183","reed-adgroup-uk","split","reed.co.uk: XML all ads - 'Developer Roles 0.28'","http://dummy"
"125184","reed-adgroup-uk","split","reed.co.uk: XML all ads - 'Developer Roles 2 0.30'","http://dummy"
"126989","reed-adgroup-uk","split","reed.co.uk: XML all ads - 'Developer Roles 0.30'","http://dummy"
"126990","reed-adgroup-uk","split","reed.co.uk: XML all ads - 'Developer Roles 0.32'","http://dummy"
"126991","reed-adgroup-uk","split","reed.co.uk: XML all ads - 'Developer Roles 2 0.32'","http://dummy"
"127942","reed-adgroup-feedonomics-uk","split","reed.co.uk: XML all ads - 'Group 8 (IT)'","http://dummy"
"127943","reed-adgroup-feedonomics-uk","split","reed.co.uk: XML all ads - 'Group 12 (Sales)'","http://dummy"
"132997","reed-adgroup-feedonomics-uk","split","reed.co.uk: XML all ads - 'Group 1 (Administration)'","http://dummy"
"132998","reed-adgroup-feedonomics-uk","split","reed.co.uk: XML all ads - 'Group 2 (Education)'","http://dummy"
"132999","reed-adgroup-feedonomics-uk","split","reed.co.uk: XML all ads - 'Group 4 (Financial Services)'","http://dummy"
"133000","reed-adgroup-feedonomics-uk","split","reed.co.uk: XML all ads - 'Group 10 (Logistics & Transport)'","http://dummy"
"142327","reed-adgroup-uk","split","reed.co.uk: XML all ads - 'RKD - 5 SEE'","http://dummy"
"142328","reed-adgroup-uk","split","reed.co.uk: XML all ads - 'RKD - 5 YH'","http://dummy"
"142329","reed-adgroup-uk","split","reed.co.uk: XML all ads - 'RKD - 3 YH'","http://dummy"
"142330","reed-adgroup-uk","split","reed.co.uk: XML all ads - 'RKD - 4 L'","http://dummy"
"142331","reed-adgroup-uk","split","reed.co.uk: XML all ads - 'RKD - 11 L'","http://dummy"
"148451","","","INACTIVE reed.co.uk: XML all ads - 'HC-One'","http://dummy"
"148452","","","INACTIVE reed.co.uk: XML all ads - 'Interserve'","http://dummy"
"148453","","","INACTIVE reed.co.uk: XML all ads - 'Enterprise Rent-A-Car'","http://dummy"
"148454","","","INACTIVE reed.co.uk: XML all ads - 'Howden Joinery'","http://dummy"
"148455","","","INACTIVE reed.co.uk: XML all ads - 'Tui'","http://dummy"
"148456","","","INACTIVE reed.co.uk: XML all ads - 'Welcome Break'","http://dummy"
"148457","","","INACTIVE reed.co.uk: XML all ads - 'Anglican Water'","http://dummy"
"148458","","","INACTIVE reed.co.uk: XML all ads - 'Sytner Group'","http://dummy"
"148459","","","INACTIVE reed.co.uk: XML all ads - 'Willis Tower'","http://dummy"
"148460","","","INACTIVE reed.co.uk: XML all ads - 'NHS Professionals'","http://dummy"
