"1","Funky Vision Limited"
"1","Caterham Cars Ltd"
"1","NHS Professionals "
"1","AGO OUTSOURCING"
"1","BEN   Motor & Allied Trades Benevolent Fund"
"1","Pharmica"
"1","Lidl"
"1","One Motion Logistics Ltd"
"1","Beecher Madden."
"1","Helping Hands Home Care"
"2","Prestige Nursing + Care"
"2","Re Resource Group"
"2","QinetiQ"
"2","Arcadis"
"3","Munchkin Inc."
"3","CWB Wholesale Ltd"
"3","One Stop Shop, Chatham, Kent"
"3","Primary Care Chemists Ltd"
"4","Napier Technologies Limited"
"4","Otter Garden Centre"
"4","Nightingales HomeCare"
"4","Champion Timber"
"4","Gi Group UK"
"4","HQ Hospitality: HQ Collection"
"4","Marks Electrical"
"5","Katie Brown Kitchens & Krantz Designs"
"5","G Games"
"5","G Research"
"5","Farmfoods"
"5","IPH Insurance"
"5","Supreme Care Services Ltd"
"5","Graduate Recruitment Bureau"
"5","Shakeaway Worldwide Limited"
"5","ASICS Europe BV"
"5","CPS Group Ltd"
"5","Papirfly Limited"
"5","Protein Superstore"
"5","Pikcells"
"5","Orlebar Brown"
"5","Phaidon International"
"6","Queensmith Master Jewellers"
"7","Mleczko Delikatesy Ltd"
"7","Battery Megastore"
"7","Progressay"
"7","WCS Environmental Ltd"
"7","Stil Acoustics"
"8","Berry Recruitment Ltd"
"8","Henlow Recruitment Group"
"9","1st Homecare Solutions"
"9","Aone distribution"
"9","Cash Generator"
"9","Hutton Care Home"
"9","Sol Tec Ltd"
"9","Avidity Science Ltd"
"9","Coop"
"9","Bloomberg"
"9","EWI Store"
"9","Blaney"
"9","Clinch Business Ltd"
"9","Urban Design & Developments Ltd / Street Structures / Urban Facades"
"10","Triumph Consultants Ltd"
"10","Shaunak's Pharmacy Group"
"10","Choice Care Group"
"10","Nevill Recruitment"
"10","Welsh Water"
"10","Formula One Car Supermarket"
"10","Health Online"
"10","Martins Group"
"10","Sanofi"
"10","Phillips Pharmacy"
"10","Fitzbillies   Trumpington Street"
"10","GAVBIZ LTD"
"10","D&W Carlisle Ltd"
"10","Ramsdens Financial Ltd"
"10","The Chapar"
"10","Rosie Cheeks"
"10","CCL Logistics Limited"
"10","PillBox Chemists Ltd"
"10","Rix Petroleum  LTD"
"10","easilift loading systems"
"10","iCare Solutions"
"10","McCauley Trailers Ltd"
"10","WoolOvers Ltd"
"10","Cirrus Response"
"10","Blaney Gears"
"10","SUN STUDIO .London"
"10","UpSkill Digital"
"10","experisuk"
"10","Capita Plc"
"10","Trade Gear Ltd."
"10","Apple"
"10","Manière De Voir"
"10","Avron Trading Limited"
"10","Daniel Moquet"
"10","Artique Galleries Limited"
"10","ISMS.online "
"10","Sunlighten UK"
"10","Audible Limited "
"10","Rutlands Ltd"
"10","Age UK Bedfordshire"
"10","EVA UK LTD"
"11","John Cribb & Sons Ltd"
"11","Aldi"
"13","Engage Transform"
"13","Purple Patch"
"15","Juicebaby"
"15","GovData Ltd"
"15","Tradeweb"
"15","Carter Accommodation Ltd"
"18","New Recruits Professional Services"
"18","AVS Fencing"
"18","AMS Plumbers Merchants Ltd"
"18","I Grunwerg Ltd"
"19","DOUGH&co Woodfired Pizza"
"19","Human Support Group"
"20","Honey Im Home"
"20","Fashion Formula"
"20","Contact Electrical Wholesale Limited"
"20","VOGUE DIAMOND"
"20","Flooring Direct"
"20","Plumbstore"
"20","Links Electrical Supplies Ltd"
"20","Novoferm UK Ltd"
"20","Daniel Moquet Driveway Design & Build"
"21","Teradata"
"28","Shell Energy"
"28","Help Resourcing Ltd"
"29","Michael Page UK"
"30","Randolphs recruitment"
"30","Helping Hands"
"30","Paragon Bathroom Solutions, paragon trade services"
"46","Schmidt"
"57","Vospers Motor House Ltd"
