"1","Waste Collection.com "
"1","Grant Palmer Limited"
"1","Student Roost"
"1","The Army"
"1","Honey Birdette  Ltd"
"1","Central logistics Midlands Ltd"
"1","Farol Ltd"
"1","Borthwick Heating and insulation"
"1","Smart Solutions Recruitment"
"1","ePac LLC"
"1","Lansdales Pharmacy"
"1","Four Seasons Health Care"
"1","LLG NW Ltd"
"1","Urfeed"
"1","CHS Transport Solutions LTD"
"1","INCENTIVE FM LTD"
"1","Vivup"
"1","Amazon"
"1","Purely Recruitment"
"1","NRL"
"1","Dolphin Personnel Ltd"
"1","Click Intelligence Ltd"
"1","Royal Cars"
"1","ADVENTURE TRAVEL"
"1","BW Taxis Ltd"
"1","Velocity Delivery Services Ltd"
"1","Perth Radio Taxis"
"1","GSS LTD"
"1","Helping Hands"
"2","Metropolitan Police"
"2","The Open University UK"
"2","Spink"
"2","James Lewis Ltd"
"2","Solartherm UK"
"2","Dynamic Parts"
"2","UPS"
"2","N A T Group"
"2","SafeGroup Services  Limited,"
"2","Vanshades"
"2","The Safegroup"
"2","ISG Fleet"
"2","AXA UK"
"2","Future Focused Care"
"2","Love Recruitment"
"3","Amazon.com"
"3","Broadfield Project Management Ltd"
"3","Tes amm"
"3","Mi shop LTD"
"3","Progress Care Solutions"
"3","AHV International"
"3","Peoples Care Solutions, delivered by Christina's Home Care Services"
"3","DP Shayban Ltd"
"3","Acquire Care Ltd"
"3","Danny Thomas Coaching Academy LTD"
"3","Boro Taxis"
"3","TVR Express Ltd."
"3","L&Q Living"
"3","Brookes Education Group"
"3","ALS Managed Services"
"3","Rise Technical Recruitment Limited"
"3","Hortology Ltd"
"3","Leonard Cheshire"
"3","R G Bassett and Sons Ltd "
"4","Bloomberg"
"4","Tower Transit"
"4","The Raphael Hospital"
"4","Wemyss Lodge"
"4","Zen Educate"
"4","Crust & Crumb Bakery Ltd"
"4","Better People Ltd"
"4","Kream Motor Recruitment Ltd"
"4","MHI Vestas Offshore Wind UK Ltd"
"4","Hoover Candy"
"5","Multi Services Kent"
"5","Deadline Logistics Ltd"
"5","experisuk"
"5","Comcore"
"5","IDEAL DIRECT SOLUTIONS"
"5","Lincolnshire Co operative"
"5","Aspirations Care Ltd"
"5","652s private hire Ltd"
"5","Universal Web Design"
"5","1st Choice Cabs"
"5","Shelter"
"5","BLANC"
"5","Middlegate Europe Ltd"
"5","Greenwood Homecare"
"5","Compass Community Schools"
"5","Neilson Financial Services"
"5","Flexicon Europe Ltd"
"5","Century Tech"
"6","Queen's Limited"
"6","ZMTL"
"6","Time Recruitment"
"6","Lockheed Martin Corporation"
"6","CGC Couriers"
"6","LEBL"
"6","Coyne Medical"
"6","Astreya"
"6","Burleys Home Care"
"7","Cera Care"
"7","Countrywide Grounds Maintenance"
"7","Lifeplus Europe"
"7","Henry d'Abo Farming"
"7","Pete's Fish & Chips Nuneaton"
"7","Kepak"
"7","Savers Health and Beauty"
"7","Merit Inspection Solutions Ltd"
"7","SBL Couriers"
"7","Carter Accommodation Ltd"
"8","Hallmark Connections"
"8","Dynamo Healthcare Training"
"8","Anglian Water Services Ltd"
"8","NCG MDL"
"8","Fully Charged"
"8","One Motion Logistics Ltd"
"8","Hartley Home Care"
"8","Sitel"
"8","Hoxton Bakehouse"
"8","Prime Produce Ltd"
"8","Rico Logistics Ltd"
"8","The Dental Suite"
"8","Marlie Civils Limited"
"8","Stephensons of Essex"
"9","Muir Matheson Aviation Limited"
"9","Skilled Labour Services  Ltd"
"9","Office Concierge"
"9","Blackpool Council"
"9","Euro Auctions"
"9","Clearabee"
"9","Aldi"
"9","Hooke Highways"
"9","V Hair Clinic"
"9","Axis International Security Services Limited"
"10","Supreme Delivery Service"
"10","Mishack"
"10","Quorn Stone"
"10","Ruh Dental"
"10","FUTURE CARE GROUP"
"10","The Sherwood Psychotherapy Training Institute"
"10","Beachborough School"
"10","On Wood Products Limited"
"10","Porthaven Care Homes, Woodland Manor Care Home"
"10","Autism Family Support Oxfordshire"
"10","Natures Way Foods Ltd"
"10","Waste London ltd"
"10","ANSYS"
"10","New Earth Solutions"
"10","J M HALL COURIERS LTD"
"10","HARBOURNE ASSOCIATES LIMITED"
"10","Telligo"
"10","Abacus and Falmouth Ltd"
"10","JJ haulage"
"10","Maidstone Sports Cars"
"10","Voice for Victims and Witnesses and Sunflower Centre"
"10","Merlin Repair Specialists LTD"
"10","DLC Ltd"
"10","Property Inventory and Inspection Specialists"
"10","M&M Investment Company plc"
"10","No Letting Go "
"10","Franchetti's"
"10","H&M Distribution Ltd   St Neot's"
"10","East London Textiles Ltd"
"10","Simplicity Energy Ltd"
"10","DPD Local"
"10","Bigfoot Logistics"
"10","Alpine Restorations 4x4 Ltd"
"10","HR GO Driving   Didcot"
"10","A.I.M Logistics Limited"
"10","Lantec UK Ltd"
"10","P.D Bannister Haulage Ltd"
"10","Noble Foods"
"10","Red Kite Vehicle Consultants Ltd"
"10","Just Eat"
"10","ATC Loudspeaker Technology"
"10","Liberty Guard UK Ltd"
"10","Lexon UK Ltd."
"10","PARAGON TRAVEL"
"11","MNT Logistics Ltd"
"11","drop24"
"11","Avondale Care Home"
"11","Brook Street"
"12","International Teachers Plus"
"13","Domino's Pizza"
"14","Newberry International Produce Ltd"
"14","R G Bassett and Sons "
"15","GBA Final Mile Ltd"
"16","Somerset West and Taunton Council"
"16","Noah enterprise"
"17","Medequip Assistive Technology Ltd"
"17","Trinity Homecare"
"17","Babcock"
"17","Rhys Davies Logistics"
"18","Comfort Executive"
"18","Imperial Logistics"
"18","Wayland Farms Ltd"
"18","Bourne Wood Manor Care Home, Porthaven Care Home"
"18","Berkshire Education Travel ltd"
"20","GIST"
"20","McCreadie and Partners Ltd"
"20","SafeGroup"
"20","FDLL"
"23","Kinect Services Limited"
"28","Arriva London"
"29","Kellars Flooring Wholesaler"
"30","AFS Logistics"
"30","Metroline"
"57","GCU "
"61","Go Ahead London"
"69","Kemp Recruitment Ltd"
