"1","Acacia Homecare"
"1","Autotrade Southwest"
"1","iCare Solutions"
"1","Page Personnel   UK"
"1","Paragon Network"
"1","Prestige Nursing + Care"
"1","East London Textiles Ltd"
"1","Liver plant & Tool Hire Ltd"
"1","Gem Imports Ltd"
"1","Thomas' Cycle Revolution"
"1","Cordant People"
"1","Amazon"
"1","NatureMetrics Ltd"
"1","Urfeed"
"1","Kaizen Brand Evolution"
"1","The Wedding Shop"
"1","Click Intelligence Ltd"
"1","Zircon Way Ltd"
"1","Inavise Tech"
"1","Vikas Buying Group"
"1","The Real Yorkshire Pudding Company"
"1","South East Fabricators Ltd"
"1","Decor 8 Ltd"
"2","KiwiCommerce Ltd"
"2","Malevich.io"
"2","Novus Care Limited"
"2","HQ Hospitality: HQ Collection"
"2","Empire Academy of Aesthetics"
"2","UK Trade Furnishings Ltd"
"2","Spar, Milltown"
"2","ServiceX LTD"
"2","AVS Fencing"
"2","LDC Decorating Contractors Ltd"
"2","CPS Group Ltd"
"2","Nevill Recruitment"
"2","MWL&S Limited"
"3","Apple"
"3","www.therugseller.co.uk"
"3","UK Linkology Limited"
"3","Euro Tool Hire"
"3","Unitel Direct"
"3","HR Support Plus"
"3","Catalent Pharma Solutions"
"3","Willie's Cacao"
"3","Dunelm"
"3","Quba & Co"
"3","Live Smarter"
"3","Jones&Co Lettings"
"4","Bespoke Timber Garden Rooms Ltd"
"4","Balmoral Health and Social Care Ltd"
"4","JANUS et Cie"
"4","Bright Care"
"4","Absoft Ltd"
"4","Prinja Pharmacy"
"4","Business Services Group"
"4","Edwin Jagger Limited"
"4","MSI Computer UK Ltd"
"4","Executive Windows"
"5","Blaney"
"5","YouMe Sushi   sushi take away"
"5","Le Montmartre"
"5","DECO Group LTD"
"5","Audible Limited "
"5","DT & T Corporation Limited"
"5","Eskimo Products Ltd"
"5","GDC Paints Ltd"
"6","Future Directions CIC"
"6","The Cheeky Panda"
"6","Farol Ltd"
"6","Marc and Partners"
"6","GJB Window Systems Ltd"
"6","Champion Timber"
"6","Rawside Furniture"
"6","Purple Patch"
"7","Exposure Ninja"
"7","Thesis Editor Ltd"
"7","Touchwood Pharmacy"
"7","Experients"
"7","J H Young Ltd   Youngs timber & builders merchant"
"7","PROPERTY RECOVERY LTD"
"7","VOGUE DIAMOND"
"7","NWVS Ltd"
"7","Cloudsmith"
"8","Urban Fresh Burgers & Fries"
"8","Signature Sofas"
"8","Really Wild Clothing"
"8","GREAT PLACE TO WORK UK"
"8","Epos Direct"
"8","Neilson Financial Services"
"8","Cytek Biosciences"
"8","Tiles DIY"
"9","Laker Builders Merchant"
"9","NCC"
"9","GCP Applied Technologies"
"10","Maker&Son"
"10","Easy Homes"
"10","LGC Limited"
"10","Trust Your Future"
"10","TCC Global"
"10","Housesimple"
"10","Advance Further LLC"
"10","LS1 Boilers"
"10","American Dry Cleaning Company"
"10","The Swift Organisation Limited"
"10","Motorsport Tools UK Limited"
"10","DV8"
"10","Linenbundle.com"
"10","Hutton Care Home"
"10","Chandlers Building Supplies"
"10","VAPE DISTRIBUTOR"
"10","Edward James Salon"
"10","Cera Care"
"10","Tradehub"
"10","Juicebaby"
"10","Capital Hair and Beauty"
"10","Aone distribution"
"10","Jane Gorse Recruitment Solutions"
"10","NJL "
"10","Paint Red Ltd"
"10","Tisski Ltd"
"10","Capita Plc"
"10","Carter Accommodation Ltd"
"10","Festa System UK"
"11","Connection Flooring Ltd"
"13","wooga"
"13","Savers Health and Beauty"
"13","Fully Charged"
"14","Scorpion Marketing"
"15","QS Supplies Ltd"
"16","Stonecrest Marble LTD"
"16","Siemens Gamesa Renewable Energy"
"17","Kesseler Kitchens"
"19","Metal Supermarkets"
"19","Martindale Windows and developments ltd"
"20","Aldi"
"20","Tapis & Company"
"20","Oakley Green Conservatories"
"20","PA Consulting"
"20","FHI"
"22","Ashton Interiors"
"24","Achieve Together"
"25","National Tyres and Autocare"
"28","Temporary Kitchens Europe Ltd"
"29","Katie Brown Kitchens"
"29","Rabart Decorators Merchants"
"30","Easy Bathrooms"
"30","N & B Foods Ltd"
"30","Lime Modern Living"
"34","New Image Tiles, Kitchens and Bathrooms"
"35","Virtual Bathrooms London Ltd"
"38","Helping Hands"
"50","Sinclair Till"
"74","Go Modern Ltd"
