"1","Banstead Manor Care Home"
"1","Hutton Manor Care Home"
"1","The Chadwick Care Home"
"1","Greyhound Inn"
"1","Domino's Pizza Kingston Upon Thames"
"1","Prezzo"
"1","Berkeley Scott"
"1","Aldi"
"1","Tavern Keeper Wales Ltd"
"1","Choice Care Group"
"1","Oakland Care"
"1","Veritas Education"
"1","Ocado Group"
"1","Park View Gloucester"
"1","360 Resourcing Solutions"
"1","Sitel Newcastle"
"1","Godiva Chocolatier"
"1","Henry Burgers"
"1","FUTURE CARE GROUP"
"1","Olive Catering Services Ltd"
"1","Bromley Picturehouse"
"1","Orange Acorn Taverns Ltd"
"1","Sweet Tree Bakery"
"1","Redemption Roasters"
"1","Corner on the Square"
"1","BRERA"
"1","Alderson House"
"1","Maple Court Care Home"
"1","Castle Grange Care Home"
"1","Fellbites Cafe Restaurant"
"1","Bluetownonline Ltd"
"1","Community Integrated Care"
"2","Pinewood Nursing Home"
"2","Hometree Marketplace LTD"
"2","The Catering Hire Company"
"2","Meadow Farm Nursery"
"2","Koshary Kitchen"
"2","Pegmar Ltd. St Annes Nursing Home."
"2","Park Life Café Clissold Park"
"2","Elliott house"
"2","City + Kent Cleaning Limited"
"2","Royal Burnham Yacht Club"
"2","Westbeach Restaurant"
"2","Le Montmartre"
"2","Cafe La Strada"
"2","Bushmills Inn Hotel"
"2","The Chough Bakery"
"2","Pizza Hut"
"2","Tinky's Day Nursery"
"2","FLD LTD"
"2","Roberts Homes Care"
"2","Master of Malt"
"2","The Plough Inn"
"2","Bite Me Burger"
"3","Hurstead House Care Home"
"3","Hephzibah Day Nursery"
"3","The Detox Kitchen"
"3","The Woolpack Inn"
"3","4com plc"
"3","Millers Fish & Chips"
"3","Oowee Vegan"
"3","Waypoints Plymouth"
"3","The Sycamores Care Home"
"3","Domino's Pizza"
"3","The springer spaniel"
"3","LHA London Ltd"
"3","Na Pedra"
"4","Steeton Court Nursing Home"
"5","Charlton Nursery"
"5","Mother Clucker Burgers Ltd"
"5","Aruba Restaurant"
"5","Caroline House"
"5","Fonab Castle Hotel"
"5","Culrose Residential Care Home"
"6","Finsbay Ventures"
"6","Hesley Group"
"6","Healthcare Staff Recruitment Ltd"
"6","Subway At Hickson's SPAR"
"6","Pressbeau Ltd"
"6","Esquires Coffee House"
"6","Tamp Coffee"
"6","Scampston Walled Garden"
"7","UK Government   Department for Environment, Food and Rural Affairs"
"7","The Borough Cafe"
"7","Athena Care Homes  Limited"
"7","Hazeldell Residential Home"
"7","KoHo Limited"
"7","Priory Adult Care"
"8","Edinburgh Woollen Mill"
"8","Coombs Catering Partnership LTD"
"8","Amberside Care Home"
"8","Bromley Cricket Club"
"8","The Beach Hut"
"8","Incy Wincy's"
"8","The Cornish Bakery"
"8","Axis12 Ltd"
"8","Absolute Taste – The Open Golf"
"8","Mayflower Care Home"
"9","vernes restaurant"
"9","The Forge"
"9","Beetham Nurseries Ltd"
"9","The Walled Garden at Beeston Fields"
"9","Park Life Cafés Heaton Park"
"9","Trustpilot"
"9","BikePark Wales"
"9","Equality Together"
"9","Sanctuary Care"
"9","Twenty Four"
"9","Westbank"
"9","THE COFFEE HOUSE"
"9","Bath Soft Cheese Company"
"9","The Bat & Ball"
"9","Ratcliffe College"
"9","St. John's School and College"
"9","Rastrick Hall and Grange Care Home"
"9","TRU Burger"
"9","The forge black rock steak house"
"10","The Goat"
"10","Thornwood Hall Care Home"
"10","Judith Page"
"10","Gold Care Homes"
"10","Nickelodeon Adventure Lakeside"
"10","Great Western Pre School"
"10","Roots"
"10","Oakdale Care Group"
"10","Pearls Bubble Tea"
"10","Stepping Stones Day Nursery"
"10","Parkdean Resorts"
"10","Sapphires Nursery School"
"10","80 20 Retail & Hospitality"
"10","Juicebaby"
"10","Esscroft Private Nursery"
"10","Woodbridge Cafe"
"10","Corby Masonic Complex"
"10","Birmingham Independent College"
"10","Connect Catering Ltd"
"10","Blossom Tree Montessori"
"10","Quantum Care Ltd"
"10","Savernake View Care Home, Marlborough, Wiltshire"
"10","Young Friends Nature Nursery"
"10","The Ridge Coffee Shop"
"10","Spar, Milltown"
"10","Crouched Friars Residential Care Home"
"10","Torwood House School and Nurseries"
"10","Mackays of Eyemouth"
"10","Maria Mallaband Care Group"
"10","Cafe"
"10","Derwent Manor Hotel BW Premier Collection"
"10","Recruit 500"
"10","Cibus Training & Consultancy Ltd"
"10","Toad Hall Nursery"
"10","Hamberley Care Homes"
"10","Windsor and Eton Brewery  The Rose and Olive Branch"
"10","Spar, Greenmount"
"10","Holroyd Howe"
"10","HR GO Recruitment   Luton"
"10","Netherwood Care Home"
"10","Stadium Diner   A1 Truck Stop"
"10","spitting pig scotland"
"10","Heath House Day Nursery"
"10","Laywell House"
"10","festival kitchen ltd"
"10","Atelier Nursery Limited"
"10","Avante Care & Support"
"10","Vantage Park Day Nursery"
"10","Five Rivers Living"
"10","John O'Groats   The Edinburgh Woollen Mill"
"10","Townsend Inc"
"10","The Impeccable Pig"
"10","Cosmic Coppers Childcare   Cardonald"
"10","Salford Arms"
"10","Centrum Care Homes"
"10","Midshire Signature Services Ltd"
"11","Tregenna Castle Resort"
"11","Cascade Events"
"11","Her Majesty’s Prison and Probation Service"
"11","Kids Inc Nurseries"
"11","Babcock"
"12","Old School Catering Ltd"
"12","BRIJ Care"
"12","The Edinburgh Woollen Mill"
"13","Mount Charles Group,"
"13","PGL Travel"
"13","The Olive Tree"
"14","The Peat Inn"
"16","Lincolnshire Co operative"
"17","Penrose Court Care Home"
"19","Park Life Café Sutton Bank"
"19","abm catering limited"
"19","Alliz Playgym Ltd"
"20","Krave Dessert Cafe "
"20","The Crieff Food Company"
"20","Ollie Owl Day Nursery"
"20","Banjos Ltd"
"21","Bennett Hay"
"22","A2Dominion Housing Group Ltd."
"22","TNS Catering Management Ltd"
"25","Hartlepool United Football Club"
"27","BEN   Motor & Allied Trades Benevolent Fund"
"28","Buckland Care"
"29","Ceredigion County Council"
"31","Harrison Catering Services"
"40","Welsh Water"
"42","Anchor Trust"
"43","SOCIAL CARE CATERING SOLUTIONS"
"50","Akari Care"
"50","National Rifle Association, Bisley,"
"52","The Box   Plymouth"
"57","COREcruitment"
"68","Elysium Healthcare"
"95","Elior"
