"1","Demipower Limited"
"1","Cytel Inc"
"1","Park Holidays UK"
"1","SECOM Plc"
"1","Checkatrade"
"1","ilke Homes Limited"
"1","Private Day Nursery"
"1","Land & Power Ltd"
"1","Pioneer Trading Company Essex Ltd"
"1","Banqueting"
"1","Burlington Estates"
"1","Couture Living Ltd"
"1","Keele University Students' Union"
"1","The Jam Factory"
"1","IMMO Investment Technologies"
"1","Telstra"
"1","Teach First"
"1","Hutton Care Home"
"1","Barringtons Cleaning Ltd"
"1","Anglia UK Ltd"
"1","Gleddoch Resorts"
"1","Fairoaks"
"1","Manpower"
"1","National Citizen Service Trust"
"1","South East Water"
"1","Arden White Limited"
"1","King and Moffatt"
"1","LCS Legal Services Group Ltd"
"1","Her Majesty’s Prison and Probation Service"
"1","Shape Design & Build"
"1","ticktBox Enterprises LLC"
"1","Huntsman"
"1","Aldi"
"1","University of York"
"1","Caterham Cars Ltd"
"1","Tivoli"
"1","University of Southampton"
"1","teqniq Limited"
"1","Endeavour Recruitment"
"1","Chequer Mead Theatre"
"1","Winsford Youth & Community Forum"
"1","Domino's Pizza"
"1","The Qalb Short Break Services Ltd"
"1","Community Health & Eyecare Ltd"
"1","Arbor Forest Products Limited"
"1","CGI"
"1","Bromley Cricket Club"
"1","Fairview International School"
"1","Claibon Recruitment"
"1","Caledonian Stone"
"1","Priory Healthcare"
"1","TalentPool"
"1","Wales International Coastal Centre"
"1","First Central"
"1","BMS Performance Ltd – Sales jobs"
"1","Absolute Taste   Absolute Food"
"1","TRB ligthwieght structures"
"1","The Best Connection Employment Group"
"1","marshall property"
"1","Kairos Media"
"1","Bank Partners"
"1","Assured Futures"
"1","Trooli"
"1","Laundryheap Limited"
"1","Diligent"
"1","Under 1 Roof Kids"
"1","Helen Taylor Thompson Foundation"
"2","Amazon"
"2","Orsted"
"2","experisuk"
"2","Mrs Buckét Cleaning Services"
"2","QinetiQ"
"2","Tadcaster Swimming Pool Trust"
"2","Merryhill Envirotec"
"2","Be Amazed Media Ltd"
"2","Syrencot Luxury Wedding Venue"
"2","Leatherhead Golf Club"
"2","Meridian Grand"
"2","Achieve Together"
"2","Fledgelings Day Nursery Hornchurch"
"2","Elite Crowdfunding limted"
"2","Estate Jobs"
"2","AGS Support Facilities Limited"
"2","Ascona Retail"
"2","Global Study UK"
"2","SCOTTS RESTAURANT"
"2","Smart Teachers"
"2","Jollyes Pet Superstores"
"2","Potens"
"2","121 Care & Mobility"
"2","Taco Bell"
"2","Portsmouth Student Accommodations"
"3","accomplish."
"3","Co op Welcome"
"3","BAE Systems"
"3","ACapital"
"3","SOUTHSIDE CLEANING"
"3","CareTech Community Services Ltd"
"3","The Squirrel Pub"
"3","ENGIE   Berkshire"
"3","JRL Group"
"3","ServiceMaster"
"3","WD40 Company Ltd"
"3","Hunters Estate Agents"
"3","MAR Facilities Management"
"3","Tottenham Estates Limited"
"3","Stowe Valley Multi Academy Trust"
"3","The Fine Cleaning Company"
"3","Kirkdale Industrial Training Services"
"4","Superbowl UK Cardiff"
"4","Superbowl UK Norwich"
"4","Central Research Laboratory"
"4","Softcat"
"4","Springbok Properties"
"4","Gatehouse Property Management"
"4","University of Chichester"
"4","Bay Education Trust"
"4","Alliance Property Limited"
"4","Gateway Property Management Ltd"
"4","Randstad CPE"
"4","RJS Resourcing Ltd"
"4","Leonard Cheshire"
"4","GRL Legal LLP"
"4","Superior Seals Ltd"
"4","Ingrebourne Valley Ltd"
"4","Cordant People"
"4","LCA Jobs"
"4","Corpor@te Facilities Services"
"5","Reactive Integrated Services Limited"
"5","Keenan Recycling Ltd"
"5","Welsh Water"
"5","Smart Estate Agent"
"5","Beta Pharmaceuticals"
"5","A2Dominion Housing Group Ltd."
"6","Caretech"
"6","Bowland Brewery"
"6","Napier Technologies Limited"
"6","CHM Recruit"
"6","Atlantic Cleaning Services Ltd"
"6","London Business School"
"6","Parkguard Ltd"
"6","Bennett Walden"
"6","The Inn at Whitewell"
"6","The Royal Society of Chemistry"
"7","Aviary"
"7","Pobl Group"
"7","TikTok"
"7","NAASH"
"7","Kepak"
"7","Hankinson Group"
"7","The Walled Garden at Beeston Fields"
"7","Oxford Private Care"
"7","Flogas Britain Ltd"
"8","CMD Recruitment Limited"
"8","True Student Living"
"8","Regent Group"
"8","Brownless Cleaning Specialists Ltd"
"8","HUSK  LIMITED"
"8","Mears Group"
"8","Welcome Estates"
"8","UK Waterproofing Solutions Ltd"
"8","ASICS Europe BV"
"8","Clovelly Estate Company Ltd"
"8","Leeds Jewish Housing Association"
"8","Cordant Engineering"
"8","Pinnacle Recruitment Services"
"8","The Honeypot Charity"
"8","Bachy Soletanche Ltd"
"8","City + Kent Cleaning Limited"
"8","Meallmore Ltd.   Grove Care Home   Kemnay"
"8","We Can Properties"
"9","Salisbury Group"
"9","Porthaven Care Homes"
"9","University Health Centre"
"9","Telebank Ltd"
"9","Scampston Walled Garden"
"9","Cloud IT"
"9","CityFibre"
"9","Valeo Management Europe"
"9","Mach Recruitment Ltd"
"9","Anchor Trust"
"9","Pro Duct Clean Ltd"
"9","Choice Care Group"
"9","Prinsegate Chartered Surveyors"
"9","Detail FM Ltd"
"9","Triton Security & Facilities Management Ltd"
"9","HCL Technologies"
"9","FACILITIES MAINTENANCE GROUP LTD"
"10","Minster Cleaning Services"
"10","Centro Property Management"
"10","The Army"
"10","Redline Assured Security, an Air Partner Company"
"10","PN Daly Ltd"
"10","Vaultex UK"
"10","AXA UK"
"10","A1 Education Limited"
"10","HQ Hospitality: HQ Collection"
"10","POUND KINGDOM LTD"
"10","Alina Homecare   Disability Support"
"10","L&Q Living"
"10","Veea Group"
"10","T4"
"10","BRL Management Ltd"
"10","Sovereign Housing"
"10","Astute Technical"
"10","Wärtsilä"
"10","Volution Ventilation UK Ltd   Airtech"
"10","Medequip Assistive Technology Ltd"
"10","Christo & Co"
"10","Bunzl Greenham"
"10","Maid on a Mission"
"10","Clifford Chance LLP"
"10","Adecco"
"10","Covance"
"10","The Orders of St Johns Care Trust"
"10","SAS"
"10","Twofold Document Solutions"
"10","The Cleanologists"
"11","Homes for Lambeth"
"11","Vita Health Group"
"11","Breanheath Ltd"
"11","Enfields Estate Agents"
"11","Playdale Playgrounds Ltd"
"12","James Andrew Residential Ltd"
"12","Copt Hewick Hall"
"12","Student Castle Brighton"
"12","It's Clean Ltd"
"12","Pristine Contract Cleaning Services LTD"
"13","Apprenticeships TFL"
"13","Baker Hughes"
"13","Archway Learning Trust"
"15","Young Estates and Land Ltd"
"15","Ridge Crest Cleaning Services"
"16","JG Pears  Ltd"
"17","Colchester Amphora Trading Ltd"
"17","Audley Villages"
"18","Nottingham Industrial Cleaners Limited"
"18","Bidvest Noonan"
"19","Interserve"
"19","aZtec Commercial Cleaning"
"20","Audley Group"
"20","State Street"
"20","Brunel Estates"
"20","Serco Group"
"20","Bunzl Cleaning & Hygiene Supplies"
"20","Wholesale Supplements"
"20","EMCOR UK"
"22","glrayconsultants"
"23","Triumph Consultants Ltd"
"23","Gilead Sciences"
"23","COREcruitment"
"27","Tame Cleaning & Maintenance limited"
"29","Glen Cleaning Company Ltd"
"29","The Clean Space"
"29","TKM Commercial Cleaning Ltd"
"30","Ceredigion County Council"
"31","Tenon fm"
"33","Babcock"
"39","Britannia Services Group Limited"
"40","LCC"
"44","Connections Recruitment"
"57","Michael Page UK"
"59","St. John's School and College"
