"1","FSE Foundry Ltd"
"1","First Care Homes Ltd. The Cambridgeshire Care Home"
"1","D.Meredith & Sons Ltd."
"1","Rover.com"
"1","Science Museum Group"
"1","Oil Recoveries Ltd"
"1","The North Face"
"1","Searley Owen Limited"
"1","Driver Hire Chelmsford & Harlow"
"1","Smart Solutions Recruitment"
"1","North West Logistics"
"1","Workchain"
"1","Hydraquip Hose & Hydraulics"
"1","Driver Hire Motherwell"
"1","Nicholls & Clarke Ltd"
"2","F H Everett & Son"
"2","Speedy Hire PLC"
"2","C. L. Prosser & Co. Ltd."
"2","Cowling and Wilcox Ltd"
"2","Recycling Lives"
"2","The Bushcraft Company"
"2","Vigo Haulage Ltd"
"2","Express Rent a Car"
"2","Martlands Waste Solutions"
"2","Arriva London"
"2","ISOTANK GROUP"
"2","North West Maintenance Services Ltd"
"2","The Best Connection Employment Group"
"3","Harrison Specialists Steels Limited"
"3","NU LINE BUILDERS MERCHANTS LTD"
"3","Forge Logistics"
"3","Grab & Deliver Limited"
"3","Gisbournes"
"3","Hudson White Services Ltd"
"3","Roman Concrete"
"3","Online Lubricants Ltd"
"3","Bryce Oils Ltd"
"3","Bettamix Concrete Ltd"
"3","C Blumsom Ltd"
"3","John Raymond Transport Limited"
"4","Aldi"
"4","Aspect Maintenance"
"4","Transcare 28 Ltd"
"5","Masons Scaffolding Ltd"
"5","All Pet Solutions Ltd"
"5","Simply Waste Solutions"
"5","PRS Recruitment Solutions Limited"
"5","Party Refresh"
"5","Creagh Concrete"
"5","Get Staff"
"5","Multi Distribution Ltd"
"5","Reston Waste Management"
"5","Astra Vehicle Technologies Ltd"
"5","Buttle Plc"
"5","Clear Engineering Recruitment"
"6","Knowlton and Newman"
"6","Triumph Consultants Ltd"
"6","Gaskells Waste Services Limited"
"6","ASAP Temps"
"6","NG Transport Ltd"
"7","Vardens Contracts"
"7","Harrison Bathrooms"
"7","L.T.Baldwin Transport Ltd"
"7","Acme Bus Company Ltd"
"7","KBC Logistics Ltd"
"7","Ryder LTD UK"
"7","Four Oaks Farm Haulage Limited"
"8","G Forbes and Son"
"8","FDLL"
"8","SYNETIQ"
"8","Direct Line Group"
"8","Reliance Employment Ltd"
"8","Drummond Motor Co Limited"
"9","Oranmore Precast Limited"
"9","THAMES CASH & CARRY MANAGEMENT LTD"
"9","AFS Logistics"
"9","Storage on Site Ltd"
"9","Drain Technology UK Ltd"
"9","Morgan Cargo"
"9","The Right Candidates"
"9","Lynn Recruitment"
"9","The Army"
"9","glrayconsultants"
"9","Selwyns Travel Limited"
"9","Charles Bentley & Son Ltd"
"10","O'Reilly Transport  Ltd."
"10","Konectbus"
"10","NAC Hire Limited"
"10","A.I.M Logistics Limited"
"10","ECO Option  Limited"
"10","Bowring Transport Ltd"
"10","C R Hansard Ltd"
"10","Enviro Solve Cleaning Services Ltd"
"10","HR GO Driving   Northampton"
"10","TSI Logistics"
"10","MEMS Power Generation"
"10","3 Logic"
"10","Haulage Holdings"
"10","I Love Meet and Greet Ltd"
"10","SY Pumps Ltd"
"10","CUE Personnel"
"10","Hirebase"
"10","BioMarsh Environmental"
"10","Sussex Transport"
"10","Calahans cleaning services"
"10","Hitchcock and King ltd"
"10","One Motion Logistics Ltd"
"10","Stewart Commercials Ltd"
"10","Kall Services  Ltd"
"10","Procam CP Limited"
"10","Dolan Skip & Plant Hire LTD"
"10","NQIS Ltd"
"10","MVT"
"10","Truck Technics"
"10","Buildbase"
"10","Professional Hygiene Ltd"
"10","john bowman haulage"
"10","L V Motors ltd"
"10","SMV Commercials Limited"
"10","Vetspeed Ltd"
"10","Broughton Transport Solutions"
"10","HTF Commercial Repairs LTD"
"10","Pirtek Derby"
"10","Stand & Deliver Transport Ltd"
"10","A2B Newquay Travel Ltd"
"10","Waitrose & Partners"
"10","Runtech"
"10","Tomato Plant"
"10","Sivyer"
"10","William Merritt Disabled Living Centre"
"10","Raybell and sons"
"10","Steward Transport"
"10","Arthurs Skips Ltd"
"10","ProVQ Ltd"
"10","P Deehan Haulage"
"10","Family company"
"10","Tanners Limited"
"10","Green World Recycling, Ltd"
"10","Link 2 recruit"
"10","Clark Contracting Ltd"
"10","Chris Bennett  Ltd"
"10","Deanta UK Ltd"
"10","TDJ Transport LTD"
"10","Simplified Recruitment"
"10","West Herts Tipper Services Ltd"
"11","Turners  Ltd"
"11","Wilrose Environmental Ltd"
"11","Ocado Group"
"12","Berry Recruitment Ltd"
"12","Connect Driver Solutions"
"12","Victorian Plumbing"
"12","Covers Timber and Builders Merchants"
"13","WJF Technical Support Ltd"
"13","CLASS 1 PERSONNEL"
"13","Egertons Recovery Group"
"13","Jardine Motors Group"
"14","Pips Skips ltd"
"15","Perfect Placement UK Ltd"
"15","Quattro Plant Ltd"
"15","Plant Commercial and Marine Engineering Limited"
"16","MC Truck and Bus Ltd"
"17","Parks of Hamilton"
"17","Mail Box Express Limited"
"18","First UK Bus"
"18","Erwin Rhodes  Ltd"
"18","Barton Coach Company"
"20","Kane Haulage Ltd."
"20","Pioneer Foodservice"
"20","PB Donoghue Waste Management"
"20","Commercial Services Tadcaster Ltd"
"20","Anglian Land Drainage Ltd"
"20","Source 24/7 Recruitment Ltd"
"21","Park’s of Hamilton Coaches"
"21","Ron Smith Recycling Ltd"
"22","Serco Group"
"24","DHL Supply Chain"
"25","DVSA"
"26","JW Waste Recycling Ltd"
"29","Kemp Recruitment Ltd"
"30","Connect Scaffolding Ltd"
"30","Babcock"
"35","Owens Group"
"44","FIROW LTD"
"47","Holt Recruitment"
