"1","Honey Birdette  Ltd"
"1","Docherty's Midland Coaches"
"1","PRC Streamline Taxis & Executive Cars"
"1","University of Huddersfield"
"1","ColourDrome Ltd"
"1","FUTURE CARE GROUP"
"1","Online Lubricants Ltd"
"1","Cygnet Health Care"
"1","D.C.Merrett & Company Limited"
"1","The Bushcraft Company"
"1","The Hurlingham Club"
"1","GB DAF"
"1","Brindley Volvo"
"1","TUK Ltd"
"1","Science Museum Group"
"1","The Perfect Shirt Dry Cleaners"
"1","L&F Jones"
"1","Tom Orange Recruitment"
"1","Monarch Personnel"
"1","Stagecoach Bus"
"1","The Smithers Group"
"1","Independent Lives Care Service"
"1","Bury Developments Ltd"
"1","Scale Space"
"1","Foster London Dalston Hair Salon"
"1","South West Hygiene"
"1","The North Face"
"1","Carlone Limited"
"1","Metropolitan Pub Company"
"1","Paragon Meed Recruitment"
"1","Albies LTD"
"1","Roehampton Club"
"1","Silver and Bow"
"1","The Inn at Whitewell"
"1","City Security Services Ltd"
"1","FMG"
"1","D.S Dalgleish & Son Ltd"
"1","Hertz Corporation, The"
"1","Her Majesty’s Prison and Probation Service"
"1","3H Property Consultants Ltd"
"1","Marks & Spencer"
"1","INCENTIVE FM LTD"
"1","Absolute Taste   The Silver Sturgeon"
"1","British Heart Foundation"
"1","Bath Bus Company Limited"
"1","John Mulholland Motor Group"
"1","Jaspers Catering"
"1","Mears Group"
"1","ADVENTURE TRAVEL"
"1","Robert Half United Kingdom"
"1","South West Coaches"
"1","Godiva Chocolatier, Inc"
"1","European Sperm Bank"
"1","The Care Company  Ltd"
"1","Keith Summers LTD"
"1","Gi Group UK"
"1","Holt Recruitment"
"1","Cervine Limited"
"1","KwikFit"
"1","Salvation Army Trading Co. Ltd."
"1","Bunzl Rafferty, Armagh, Northern Ireland"
"1","James Lewis Ltd"
"1","Cancer Research UK"
"1","Aspen Hamilton Care Management"
"2","Credit Limits International Ltd"
"2","Ace Recruitment"
"2","Shearings Holidays"
"2","The Yan at Broadrayne"
"2","The Ingham Swan"
"2","Go South Coast"
"2","S & S Distribution Ltd"
"2","Alba Travel Limited"
"2","Hillthwaite House"
"2","Owls Hall Environmental Ltd"
"2","CMD Recruitment Limited"
"2","Jackson Lift Group"
"2","Go Green Taxis"
"2","Hyperchem Limited"
"2","B&M Waste Services"
"2","Willis Towers Watson"
"2","Somerset West and Taunton Council"
"2","XDP Ltd"
"2","Busy Bees Housekeeping Ltd"
"2","Global City Travel Ltd."
"2","Unum UK"
"2","Stratstone Tottenham Service"
"2","Spire Hospital Support Centre Regents Gate"
"2","Oxwich Bay Hotel"
"2","Royal Shakespeare Company"
"2","The Crabtree"
"2","Siemens Gamesa Renewable Energy"
"2","RS Components"
"2","Care UK Residential Care Services"
"2","Bennett’s Fish & Chips"
"2","Dominos Pizza"
"2","rtkeedwell"
"2","Priority Express"
"3","Micro Focus"
"3","Serco Group"
"3","Hutton and Co  LTD"
"3","Arnold Lodge School"
"3","Dream Cottages"
"3","MedExpress"
"3","Option A"
"3","Choice Care Group"
"3","Star Care Agency Ltd"
"3","1st Technologies Ltd"
"3","SWS UK"
"3","trentbarton"
"3","Fortis IBA Limited"
"3","Nicholls Colton Group Ltd"
"4","The Tekk Group"
"4","Horizon Parking Ltd"
"4","Trinity Homecare"
"4","PHS Group Limited"
"4","The Green Bus"
"4","Procam CP Limited"
"4","phs Group"
"4","Brett Aggregates Ltd"
"4","Baa Bar Ltd"
"4","Caledonian Stone"
"4","EyeSafe"
"4","ILG "
"4","Schoen Clinic"
"4","Driver Hire Belfast"
"4","Supasweep"
"4","Bellrock"
"4","Adecco"
"4","Rejuv Lab London"
"5","Eurotaxis Ltd"
"5","Spotless Water"
"5","The Real Apprenticeship Company"
"5","TeamSport Indoor Karting   Watford"
"5","Laundryheap Limited"
"5","Grant Palmer Limited"
"5","WRP Timber Mouldings Ltd"
"5","westgate vehicle hire"
"5","HFD Limited"
"5","Morgan Cargo"
"5","TAG Forklift Truck Services Ltd"
"5","Rover.com"
"5","Auxillis"
"5","Flexo Furniture Ltd"
"5","City Security Services Ltd – London"
"5","Group 1 Automotive UK"
"5","Street Stream"
"5","Neil Douglas Block Management"
"5","Confidential"
"5","Allday Recruitment Ltd"
"5","Lantec UK Ltd"
"6","University of Chichester"
"6","Changing Lives in Cheshire"
"6","Smartseal UK Ltd"
"6","HR GO Recruitment Chatham"
"6","DTTD"
"6","Easipac"
"6","Associated Waste Management"
"6","DOTET"
"6","ADVANCE VAUXHALL "
"6","Perfect Placement UK Ltd"
"6","First UK Bus"
"6","S.R.P. Inventories"
"7","Panda Coaches"
"7","Perth Radio Taxis"
"7","EHD LONDON"
"7","Speedy Hire PLC"
"7","Merlin Repair Specialists LTD"
"7","Hyde & Rowe"
"7","Deadline Despatch Ltd"
"7","Quinto Crane & Plant Ltd"
"7","Apprenticeships TFL"
"7","BPR GROUP EUROPE t/a Paper Round"
"7","Hiring Wizard"
"7","ngc logstics"
"7","Pulham & Sons  Ltd"
"7","Mayfair Homecare"
"8","Kaizen Furniture Makers Ltd"
"8","Ruh Dental"
"8","JRL Group LTD"
"8","Carbase"
"8","Harrowden Turf"
"8","MDC logistics"
"8","Progress Care Solutions"
"9","IPS International"
"9","EFS Global"
"9","Clarke Transport"
"9","Pro Lab Design"
"9","Lidl"
"9","Five Rivers Environmental Contracting Ltd"
"9","S Jones Containers Ltd"
"9","JK Dental Design Laboratory"
"9","Aldi"
"9","Excel Executive Ltd"
"9","Pressfab Evo Ltd"
"9","Kemp Recruitment Ltd"
"9","Kolours Healthcare Ltd"
"9","Skips R Us Ltd"
"9","Lexon UK Ltd."
"9","Just Eat"
"9","Canal & River Trust"
"9","Selwyns Travel Limited"
"9","Alina Homecare   Disability Support"
"9","Portsmouth minibus and coach hire"
"9","New Earth Solutions"
"9","LandEnergy Girvan Limited"
"9","Norcott Technologies Limited"
"9","miServices "
"9","Quanta"
"9","PPM Recruitment"
"9","Johnsons Workwear Ltd"
"10","Boro Taxis"
"10","Rise Technical Recruitment Limited"
"10","AMBASSADOR LINE LTD"
"10","Windsor Classics Ltd"
"10","Amesbury taxis"
"10","Armstrong Logistics Ltd"
"10","Akcess CIC"
"10","Waste Water Services Ltd"
"10","Circus Street"
"10","Budget Taxis"
"10","Runtech"
"10","UKME"
"10","Allied Recruitment"
"10","FDLL"
"10","Cartime"
"10","Connect Scaffolding Ltd"
"10","Bluestar"
"10","Black and White Carriages Ltd"
"10","Sopra Steria"
"10","Gallery Direct"
"10","Central logistics Midlands Ltd"
"10","Techxi"
"10","Myrtle Coffee service ltd"
"10","BioMarsh Environmental"
"10","Jump.Work"
"10","Placewell Group"
"10","Cistor"
"10","DVSA"
"10","Uk Solutions Ltd"
"10","Celerity ls Ltd"
"10","Finning  Ltd"
"10","The Yard"
"10","Waste Water Solutions  Ltd"
"10","Fairalls  Limited"
"10","Turners  Ltd"
"10","Total Property Services Oxford Ltd"
"10","JG Pears  Ltd"
"10","DHL Global Forwarding"
"10","UVA Uk"
"10","Party Refresh"
"10","Portico Corporate Reception Management"
"10","Go Modular Technologies UK Limited"
"10","ACS Automotive Recruitment Consultancy"
"10","St George's Childcare"
"10","Crystal Display Systems Ltd"
"10","GODIVA TRAVEL"
"10","Linc Cymru"
"10","NGC Logistics Ltd"
"10","Fresenius Kabi"
"10","Robins & Day"
"10","Central Taxis  Ltd"
"10","ABILITY NORTHANTS cic"
"10","Jack Richards & Son Ltd"
"10","ServiceMaster Ltd"
"10","Tailor Made Resources"
"10","SMH Fleet Solutions"
"10","Dignity Funerals"
"10","Abacus and Falmouth Ltd"
"10","The Manor Preparatory School"
"10","Ron Smith Recycling Ltd"
"10","Bunzl Cleaning & Hygiene Supplies"
"10","Moran Logistics"
"10","Seajacks UK Ltd"
"10","Clydebank & District TOARS Ltd"
"10","Berry Recruitment Ltd"
"10","CWS"
"10","Michelmersh Brick Holdings PLC"
"10","TSI Logistics"
"11","Arriva London"
"11","Celerity ls"
"11","Ground Control Ltd"
"11","Manor Tree Care Ltd"
"11","East London Textiles Ltd"
"11","One Motion Logistics Ltd"
"12","Tristar Worldwide"
"13","Clee Hill Plant Ltd"
"13","Parker Car Service"
"13","Generator Power"
"13","Integrated Solutions UK"
"13","The GIGA Group"
"14","Waitrose & Partners"
"14","Tesco"
"14","John Davidson Pipes"
"14","CWS Jobs"
"14","Farleigh Coaches"
"14","Centrebus"
"14","Cordant People"
"15","Carrington West"
"16","Amazon Flex"
"16","Foodmove"
"16","G & J Steele"
"16","Magicman"
"17","DHL Supply Chain"
"17","Caterkwik Ltd"
"18","Pink Vehicle Leasing"
"18","Vanwise Group Limited"
"18","Jardine Motors Group"
"18","CitySprint"
"18","Regional Recruitment"
"18","TrustFord"
"18","ZENITH LOGISTICS GROUP"
"19","Hampshire County Council"
"19","Cox Automotive"
"20","Metroline"
"20","Harrowden Turf Ltd"
"20","DPD Group UK"
"20","Stericycle"
"20","Learn by Design"
"21","Hearn's Coaches Ltd"
"21","Sodexo"
"21","GTJ LOGISTICS LTD"
"22","Bus62"
"24","MEMS Power Generation"
"26","GIST"
"26","SMH Fleet Solutions Ltd"
"30","Ocado Group"
"30","Simply Waste Solutions"
"32","Baker Hughes"
"32","Natures Way Foods Ltd"
"35","BP"
"43","BMW Group Retail"
"44","Babcock"
