"1","Superior Spas Ltd"
"1","New Recruits Professional Services"
"1","Parker Motor Services"
"1","Champagne+Fromage"
"1","Mercedes Benz Truck and Van NI"
"1","ISMS.online "
"1","Chepstow Hotspring"
"1","Accord Management Services Limited"
"1","Science Museum Group"
"1","Pulse & Cocktails"
"1","I Was Here Souvenirs Ltd"
"1","Rover.com"
"1","Plymouth Hotspring"
"1","HUNTERS ESTATE AGENTS"
"1","Hydraquip Hose & Hydraulics"
"1","Rixonway Kitchens"
"1","ESHK hair"
"1","Essex Groundwork Supplies Ltd"
"1","Deep Blue Restaurants Ltd"
"1","Chandlers Building Supplies Ltd"
"1","Fitzbillies   Trumpington Street"
"1","PF Jones"
"1","DWI Consulting Limited"
"1","Absolute Taste   The Silver Sturgeon"
"1","EE"
"2","Get Set UK"
"2","Honey Im Home"
"2","Edmundson Electrical Ltd"
"2","barratt"
"2","Her Majesty’s Prison and Probation Service"
"2","Bank of Ireland"
"2","Ramsdens Financial Ltd"
"2","Hutton Care Home"
"2","Le Montmartre"
"2","Playdale Playgrounds Ltd"
"2","Connollys of Moy"
"2","Cobella"
"2","Queensmith Master Jewellers"
"2","Domino's Pizza"
"2","Domestic & General"
"2","Proofpoint"
"2","Confidential Priviately Held Company"
"2","Reactive Integrated Services Limited"
"2","Executive Windows"
"3","AFK Group Ltd, Trading as Mathnasium"
"3","Vans"
"3","UK HAIDILAO PTE LTD 英国海底捞"
"3","Craft Buddy"
"3","MF Hydraulics Ltd"
"3","Bristol Hotspring"
"3","RS Components"
"3","JT Tool & Hire Ltd"
"3","MAISON ASSOULINE"
"3","80 20 Retail & Hospitality"
"3","Anglia Door Systems Ltd"
"3","Darlings of Chelsea"
"3","Stroud Brewery"
"3","Sceptre Networking Limited"
"3","Calverley Group"
"3","Birchwood Group"
"4","Timpson Ltd a  Trainee Branch Manager  Newport & Surrounding areas"
"4","MAX CASINO"
"4","Champion Timber"
"4","Brightside Insurance"
"4","IG Design Group"
"4","Bank of America"
"5","DJ Tech Direct"
"5","Park Life Café Clissold Park"
"5","Artique Galleries Limited"
"5","Trowbridge Gallery"
"5","King & Allen Ltd"
"5","Keyline"
"5","G.A. Pawnbrokers"
"5","Dunton Environmental Ltd"
"5","Helping Hands"
"5","eFrame"
"5","Triple R Engineering Ltd"
"5","Eurostop Ltd"
"5","Universal Fibre Optics Ltd"
"5","Learning People"
"5","Westland Horticulture Ltd"
"5","Panelex wood Agency"
"5","Bachmann GmbH"
"5","MStyle"
"5","JKG Interiors"
"5","Hertz Corporation, The"
"6","SKO Kitchen & Bedroom"
"6","Pitman Training Group Ltd"
"6","Maison Vie Cafe"
"6","RSULT UK"
"6","Handmade Kitchens of Christchurch"
"6","Cerner Corporation"
"6","Giftpro"
"6","BlackRock"
"6","Oasys Technologies"
"6","Oak Furniture Land"
"6","Buildbase"
"6","HR Support Plus"
"6","Thrifty Car and Van Rental"
"6","GAVBIZ LTD"
"7","Timpson Ltd a  Trainee Branch Manager  Cardiff & Surrounding areas"
"7","Daniel Moquet Driveway Design & Build"
"7","LS1 Boilers"
"7","Daniel Moquet"
"7","CCF"
"7","Waterfords Estate Agents"
"7","Tiles DIY"
"7","Be Wiser Insurance"
"7","John Mulholland Motor Group"
"7","Grove Group"
"8","NP Structures"
"8","Rosie Cheeks"
"8","Inflecto Media"
"8","Nero e Bianco"
"8","British Heart Foundation"
"8","Sunnamusk London"
"8","A Hussain Motors ltd T/A My Next Car"
"8","ArtiCAD Ltd"
"8","Turnbuckle communications"
"9","NOAH Enterprise"
"9","Omnia Housing Ltd"
"9","Charles Tyrwhitt"
"9","CCL Logistics Limited"
"9","Palace Chemicals"
"9","Deanta UK Ltd"
"9","Ramair Filters Limited"
"9","360 Resourcing Solutions"
"9","Hutton and Co  LTD"
"9","GCP Applied Technologies"
"9","Graham and Green, luxury retail and online"
"9","Armstrong Denby Executive Search & Recruitment"
"9","Pricecheck | International Brand Partners"
"9","Schauenburg Technical Solutions Ltd"
"10","Michael Page UK"
"10","Prezzo"
"10","Timpson Ltd a  Trainee Branch Manager  West Wales & Surrounding areas"
"10","Brooklands Interiors"
"10","Pirtek Bristol"
"10","Connection Flooring Ltd"
"10","Chris Eastwood Automotive Ltd"
"10","The Main Company"
"10","Hirebase"
"10","Juicebaby"
"10","docs fitted furniture ltd"
"10","Maker&Son"
"10","Allsop & Francis Ltd"
"10","Instyle All Trades"
"10","Mervyn Lambert Plant Ltd"
"10","Just Value Doors Ltd"
"10","Speedy Hire PLC"
"10","Skinnydip London"
"10","Hitchcock and King Enterprises Limited"
"10","Fraser Hart Jewellers"
"10","East Anglia's Children's Hospices"
"10","Fonextras"
"10","Coventry Timber Products Ltd"
"10","Apple"
"10","Richard F Mackay Ltd"
"10","Farnham Bathroom Co Ltd"
"10","HK Creations Ltd"
"10","CPC CIVILS"
"10","Sugar Box USA"
"10","Professional Music Technology"
"10","VS Tech "
"10","TeamSport Indoor Karting   Watford"
"10","Monarch Bedrooms"
"10","Merritt & Fryers Ltd"
"10","Kuche & Bagno   Kitchens Bathrooms Interiors"
"10","Prestons"
"10","Choice Care Group"
"10","CR Smith"
"10","Aston Melton Mowbray Limited"
"10","Vodafone"
"10","Otter Garden Centre"
"10","Paragon Bathroom Solutions, paragon trade services"
"10","MKM Building Supplies Ltd"
"10","SECOM Plc"
"10","Mayfair Granite"
"10","Hippo Motor Group"
"10","Simplified Recruitment"
"10","Windsor Heating Supplies"
"10","The Bathroom Cellar"
"10","Ripples"
"10","Keystone People Ltd"
"10","Hoseflex Ltd"
"10","EYRE & ELLISTON ELECTRICAL DISTRIBUTORS"
"11","Aldi"
"11","National Tyres and Autocare"
"11","Travis Perkins"
"12","Arnold Clark"
"12","Equifax"
"12","Godiva Chocolatier, Inc"
"12","Nationwide Home Innovations"
"12","Snappy Snaps   Branch Manager   Henley on Thames"
"12","Randolphs recruitment"
"12","Plumbstore"
"12","The Sales and Marketing Hub"
"13","Screwfix"
"13","Marabese Ceramics LTD"
"13","NU LINE BUILDERS MERCHANTS LTD"
"13","Woodside Animal Centre"
"15","Recruitment in Hand"
"15","Tile Emporium Ringwood"
"16","John Davidson Pipes"
"16","Charles Pugh  Ltd t/a National Windscreens"
"16","CCR Motor Co Ltd"
"17","Clifton Trade Bathrooms"
"18","Greggs Plc"
"19","Design A Space"
"19","PayPal"
"19","WOODS FURNITURE"
"19","Optiplan Kitchens Ltd"
"19","Gleneagles"
"19","GCS Associates"
"19","Livingspace"
"20","Green Retreats"
"20","Beaverbrooks"
"20","Godiva Chocolatier"
"20","Natural choice wood floors"
"20","Olivia May Ltd"
"20","The North Face"
"20","Elstow Tile Warehouse"
"20","Rabart Decorators Merchants"
"20","WES Industrial & Welding Supplies"
"20","EMG Motor Group"
"25","Schmidt"
"25","Plumbstop"
"27","Sharps Bedrooms Limited"
"29","Licata Building systems Ltd / Builders Merchant / Building Materials / Construction Supplies / Construction Materials"
"29","Fairalls  Limited"
"30","Quay Centre Limited"
"34","Ridgeway Interiors"
"38","The Wedding Shop"
"39","Benchmarx Kitchens & Joinery"
"54","Magnet"
"132","BMW Group Retail"
