"1","Proclense Valeting Services Ltd"
"1","ROEDEAN SCHOOL"
"1","Apple"
"1","School Lettings Solutions"
"1","Pricecheck | International Brand Partners"
"1","Blade & Rose ltd"
"1","Cameron Ventures Group"
"1","Gi Group UK"
"1","Jackson Lift Group"
"1","UKG Care"
"1","TUK Ltd"
"1","MI5"
"1","Alexander Dennis"
"1","Payglow Ltd"
"1","The Ingham Swan"
"1","Telstra"
"1","A Plus Aluminium "
"1","Keltic Traffic Management"
"1","Mears Group"
"1","S. Morris Ltd."
"1","Motofix Accident Repair Centre"
"1","Viva Minibus Ltd"
"1","Direct Connections Limited"
"1","Willis Towers Watson"
"1","UK Waterproofing Solutions Ltd"
"1","John O'Conner GM Limited"
"1","Affinity Flying Services"
"1","The Windrush Medical Practice"
"1","Horizon Parking Ltd"
"1","WHSmith"
"1","PerkinElmer"
"1","Amzn Bites DOX2 Ltd"
"1","Thuasne UK Ltd"
"1","Rise Technical Recruitment Limited"
"1","Automotive Recruitment Solutions Ltd"
"1","New Reflexions"
"1","Online Lubricants Ltd"
"1","Cordant People"
"1","All Car Leasing"
"1","MJB Precision Engineering Ltd"
"1","Blue Sky Botanics Ltd"
"1","Just Eat"
"1","Lunaz Design"
"1","Choice Care Group"
"1","Tyre City"
"1","Style Midlands"
"1","Bolliger UK"
"1","HUFFKINS CAFE TEAROOMS"
"1","Dow Jones"
"1","CenturyLink"
"1","BOGE Compressors Ltd"
"1","Beatties Distribution Services"
"1","Mervyn Lambert Plant Ltd"
"1","One Call Taxis   A1 Taxis"
"1","ATS Euromaster"
"1","Boost Juice Bars"
"1","The Cock, Pub & Kitchen"
"1","Sureserve Group PLC"
"1","Autism at Kingwood"
"1","Hands On Healthcare Solutions Ltd"
"1","GCS Associates"
"1","Dakota Hotels"
"1","Galloway Travel Group"
"1","Quanta"
"1","Easipac"
"1","Peckforton Castle Hotel"
"1","Sitech London Ltd"
"1","Envisage Gardens"
"1","Orbus Software"
"1","Allday Recruitment Ltd"
"1","SafeGroup Services  Limited,"
"1","FA92 Group Ltd"
"1","Trinity Homecare"
"1","Centrica"
"1","TeamSport Indoor Karting   Gosport"
"1","3GS Limited"
"1","Cambridge Group of Schools"
"1","Rover.com"
"1","St Pierre Groupe Ltd"
"1","Kemp Recruitment Ltd"
"1","Stericycle"
"1","Click Intelligence Ltd"
"1","Thorn Baker : Construction"
"1","Eurokey Recycling Group"
"2","Kinect Services Limited"
"2","eps event"
"2","Lifeplus Europe"
"2","RG Duncan"
"2","Leisureplex"
"2","Science Museum Group"
"2","Farleigh Golf Club"
"2","Miki Travel Limited"
"2","TalentPool"
"2","The White Rabbit Pizza Co"
"2","RIMMERS MUSIC LTD"
"2","St Magnus Hospital"
"2","Amberstone"
"2","Freeman Jones Solicitors"
"2","Dunfield House Limited"
"2","Licata Building systems Ltd"
"2","Serco Group"
"2","The Royal Society of Chemistry"
"2","Handsfree Group"
"2","The Amber Foundation   Charity number 1051388"
"2","Grove Care Limited"
"2","Richfords Fire & Flood"
"2","Neil Douglas Block Management"
"2","Fortress Facilities Management Ltd"
"2","Badgemore preschool"
"2","Kane"
"2","Bellrock"
"2","CMD Recruitment Limited"
"2","365 Recruitment"
"2","Chuckling Goat LTD"
"2","HR Carriages LTD"
"2","Owens Group"
"2","Whistlefish"
"2","Sanctuary Care"
"2","The Manor at Bickley"
"2","F H Brundle"
"2","Lidl"
"2","The Three Crowns Inn, Chagford"
"2","BAE Systems"
"2","Waitrose & Partners"
"2","Insafe International Limited"
"2","Tim Hortons UK & Ireland Ltd"
"2","Delaware North"
"3","ALF Construction"
"3","Daniel Owen Ltd"
"3","Laundryheap Limited"
"3","Gilchrists"
"3","Greenspace Ecological Solutions"
"3","GIST"
"3","The Ghost Bus Tours"
"3","Lights Control Rigging Productions Ltd"
"3","Carlone Limited"
"3","FCO Services"
"3","Seatrade Europe ltd"
"3","J.O. TRANSPORT LTD"
"3","Asset Remarketing Ltd"
"3","Wildwood Restaurants"
"3","CITY BLINDS & SHUTTERS LTD"
"3","Ethos Facilities Limited"
"3","Nicholls Colton Group Ltd"
"3","FMG"
"3","Rainbow Care Solutions"
"3","MTS Tank Cleaning"
"3","Zenith Vehicles"
"3","The Yard"
"3","Lineage Logistics"
"3","Beaucare Medical"
"3","Avis Budget Group"
"3","James Lewis Ltd"
"3","Ash Brook The Independent Funeral Directors"
"3","Johnsons Workwear Ltd"
"3","Direct Accident Management Ltd"
"3","Lodge Group Care UK"
"3","Connect Driver Solutions"
"3","Waterfront Cafe  Bar Bistro oxfordshire"
"3","The Inn at Whitewell"
"3","Clearwell Mobility"
"3","FMCV Limited"
"3","Connect Scaffolding Ltd"
"3","Priory Group"
"3","Colour Sound Experiment Ltd"
"3","Central Taxis  Ltd"
"3","Fortress Contemporary Art Foundation"
"3","Forge Logistics"
"3","GAS Production Hire"
"3","RBK SERVICES & SUPPLIES UK LTD"
"3","Sasse Facilities Management Ltd"
"3","Oomph! Out and About Ltd"
"3","DOTET"
"3","Club Europe Holidays"
"4","C RO VEC Ltd"
"4","Elite Group   Branded Football Merchandising"
"4","CCF"
"4","Robins & Day"
"4","Azure Hygiene"
"4","Ron Smith & Co Ltd"
"4","HR GO Recruitment Chatham"
"4","westgate vehicle hire"
"4","Speedy Hire PLC"
"4","Insurance Revolution"
"4","Eland Cables"
"4","Anchor Trust"
"4","SYNETIQ"
"4","Sopra Steria"
"4","Bullet Express Limited"
"4","Micro Focus"
"4","Elite CarePlus Ltd"
"4","Catalyst Housing Association"
"5","Moogies Limited"
"5","DPD Group UK"
"5","Centrebus"
"5","Orbital Direct Limited"
"5","Choices International"
"5","LandEnergy Girvan Limited"
"5","S.R.P. Inventories"
"5","Countrywide Grounds Maintenance"
"5","Build Personnel UK Ltd"
"5","DCK Group"
"6","Havant Rugby Club"
"6","Turners  Ltd"
"6","First UK Bus"
"6","Apprenticeships TFL"
"6","Yelloway Coaches Ltd"
"6","New Earth Solutions"
"6","Seajacks UK Ltd"
"6","Poole Bay Warehousing Ltd."
"6","FDLL"
"6","BOEING"
"6","Libertas"
"6","ODS COURIERS"
"6","Melbourne Post Office"
"6","Carzam Ltd"
"6","ABBA CARS ."
"6","Excel Executive Ltd"
"6","Clydebank & District TOARS Ltd"
"6","Deliverwize Ltd"
"6","Roadchef Motorway Services Clacket Lane Services M25"
"6","Fleet Service GB"
"6","Selwyns Travel Limited"
"6","Rapid Despatch"
"6","Cosmopolitan Recruitment"
"7","Hiring Wizard"
"7","NRL"
"7","Clee Hill Plant Ltd"
"7","Breathe Safety Ltd"
"7","Myhill's Minibuses"
"7","UBICO"
"7","Local Taxi Firm"
"7","Boro Taxis"
"7","Womble Bond Dickinson  LLP"
"7","Integrated Solutions UK"
"7","Modulek Ltd"
"7","Monahans Transport Ltd"
"7","Hall Couriers LTD"
"7","Hunts Motorcyles"
"7","Halfords"
"7","Southgate and finchley coaches Ltd"
"7","Blackpool Minibuses"
"7","Slam Transport Ltd"
"7","The GIGA Group"
"8","City Circle UK Limited"
"8","ePac LLC"
"8","Windsor Classics Ltd"
"8","FIFTH ZONE LTD"
"8","DRYBAND ONE LTD"
"8","Flexo Furniture Ltd"
"8","Berry Recruitment Ltd"
"8","Papa John's"
"8","Audley"
"8","Magicman"
"8","UK Connect"
"8","Prime Appointments"
"8","Aldi"
"9","UVA Uk"
"9","S Jones Containers Ltd"
"9","PSAV"
"9","Narford Scaffolding Ltd"
"9","JK Dental Design Laboratory"
"9","Fairalls  Limited"
"9","Rainbow Bodyshop Ltd"
"9","Perfect Placement UK Ltd"
"9","Spectrum Days"
"9","Carbase"
"9","EHD LONDON"
"9","Dukes AutoTech"
"9","Airport Parking & Hotels Ltd"
"9","Grant Palmer Limited"
"9","Lumineux Lighting"
"10","Pro Lab Design"
"10","Vikingston Minibus Hire Ltd"
"10","JJ Roofing Supplies"
"10","C4 Logistics"
"10","Taylors Service Centres"
"10","Ground Control Ltd"
"10","Intercleanse Limited"
"10","Celestra"
"10","Day Aggregates"
"10","The Fox Goes Free"
"10","Bimson Haulage Limited"
"10","Bank of Ireland"
"10","National Property Trade"
"10","LMTravel"
"10","Hitachi Construction Machinery UK"
"10","R H logistics Ltd"
"10","Wilson Taxis Ltd"
"10","Rockar Jaguar Land Rover"
"10","Lancashire Waste Services"
"10","BioMarsh Environmental"
"10","Ace Recruitment"
"10","LEGO Group"
"10","EyeSafe"
"10","Abacus and Falmouth Ltd"
"10","Anglia UK Ltd"
"10","Paragon Meed Recruitment"
"10","Arriva London"
"10","Retech Solutions Ltd"
"10","Office Beverages"
"10","Crystal Services Plc"
"10","WRP Timber Mouldings Ltd"
"10","HFD Limited"
"10","A Field Transport Ltd"
"10","CWS"
"10","Genesis Personnel"
"10","The Honeypot Charity"
"10","MDC logistics"
"10","Alina Homecare   Disability Support"
"10","QVIS Lighting and Security Ltd"
"10","ALPYBUS SARL"
"10","ALB Transport"
"10","LAMBERT BROTHERS HAULAGE LTD"
"10","Venue Audio Visual"
"10","Mert Global Ltd t/a Skybridge Holidays"
"10","Ito World"
"10","Vybe Resource"
"10","EPL transport"
"10","CEG Hire & Productions"
"10","Site Labour Supplies Ltd"
"10","ROI Resources"
"10","Mainland Catering Equipment Ltd"
"10","Highways England"
"10","hypertunnel ltd"
"10","Cox Automotive"
"10","ServiceMaster Ltd"
"10","Medequip Assistive Technology Ltd"
"11","Rothwell's Cleaning Services Ltd"
"11","Mainline Employment"
"11","CWS Jobs"
"11","Shotcrete Services Ltd"
"11","Sodexo"
"12","Merlin Repair Specialists LTD"
"12","East London Textiles Ltd"
"12","Porthaven Care Homes, Woodland Manor Care Home"
"13","SafeGroup"
"13","Bunzl Cleaning & Hygiene Supplies"
"13","Clarkes of London   Part of National Express"
"13","eSift Ltd"
"14","Parker Car Service"
"14","WMB Logistics"
"14","Auxillis"
"15","Metroline"
"15","Capita TV Licensing"
"15","AD Group Services Ltd"
"16","Lucketts"
"16","ABILITY NORTHANTS cic"
"17","Moran Logistics"
"17","Michelmersh Brick Holdings PLC"
"17","Tristar Worldwide"
"17","SMH Fleet Solutions"
"17","GCU "
"18","Simply Waste Solutions"
"18","Go Green Taxis"
"19","Simply Washrooms"
"19","Littlewood Fencing Ltd"
"19","DHL Supply Chain"
"20","Finning  Ltd"
"20","Magnum Logistics Ltd"
"20","David Hathaway Transport"
"20","Foodmove"
"20","Canal & River Trust"
"20","Minster Worldwide"
"20","Robinsons Ltd"
"21","Auto Rescue Logistics"
"21","Tesco"
"21","Natures Way Foods Ltd"
"21","Carrington West"
"22","Baker Hughes"
"23","ZENITH LOGISTICS GROUP"
"24","Stuart"
"24","Caterkwik Ltd"
"25","Babcock"
"25","Tonkin Recovery Ltd"
"28","Ocado Group"
"29","MEMS Power Generation"
"31","Site Equip"
"32","West Coast Motors"
"38","Delivery365Group"
"49","Atlas Courier Express UK"
