"1","SME Group Plc"
"1","Cirrus Response"
"1","Best At Home Adult Care"
"1","Mendix"
"1","Graduate Recruitment Bureau"
"1","CS Vehicle Solutions"
"1","Blaney Gears"
"1","The Chapar"
"1","Bluebird Care Totton"
"1","Hiring Wizard"
"1","Tradeweb"
"1","UpSkill Digital"
"1","Queensmith Master Jewellers"
"1","HOUSE OF FASHION ASSOCIATES"
"1","Wave Jewellery Royal Exchange Manchester"
"1","Sunlighten UK"
"1","Daniel Moquet"
"1","Protein Superstore"
"1","Daniel Moquet Driveway Design & Build"
"1","Contact Electrical Wholesale Limited"
"1","Welsh Water"
"1","TRB ligthwieght structures"
"1","Castle Community Bank"
"1","Health Online"
"2","CPS Group Ltd"
"2","Danchay LTD"
"2","MStyle"
"2","Alexanders Motor Group"
"2","Brands of Watford"
"2","Martins Group"
"2","Coventry Timber Products Ltd"
"2","John Cribb & Sons Ltd"
"2","Marabese Ceramics LTD"
"2","Aone distribution"
"2","I Grunwerg Ltd"
"2","Metrica Recruitment"
"2","Rosie Cheeks"
"2","Human Support Group"
"2","ID Medical"
"2","Playdale Playgrounds Ltd"
"2","GovData Ltd"
"2","Hutton Care Home"
"2","Nevill Recruitment"
"2","experisuk"
"2","Flooring Direct"
"2","Berry Recruitment Ltd"
"2","D&W Carlisle Ltd"
"2","Absolute Taste   The Silver Sturgeon"
"2","NOAH Enterprise"
"2","Rontec esso stansted service station"
"2","McCauley Trailers Ltd"
"2","Saba Software"
"2","Mleczko Delikatesy Ltd"
"2","Lifeways"
"2","Thatchers Cider"
"2","Papirfly Limited"
"2","Audible Limited "
"2","Option A"
"2","Phaidon International"
"2","New Recruits Professional Services"
"3","Plumbstop"
"3","Henlow Recruitment Group"
"3","Munchkin Inc."
"3","Aldi"
"3","Helping Hands"
"3","Cheshire Retail  Ltd"
"3","Prestige Nursing + Care"
"3","Shakeaway Worldwide Limited"
"3","AVS Fencing"
"3","Rix Petroleum  LTD"
"3","Cash Generator"
"3","iCare Solutions"
"3","AMS Plumbers Merchants Ltd"
"4","EVA UK LTD"
"4","Artique Galleries Limited"
"4","Midcounties Co operative"
"4","Apple"
"4","Help Resourcing Ltd"
"4","Links Electrical Supplies Ltd"
"4","Novoferm UK Ltd"
"4","Honey Im Home"
"4","Plumbstore"
"4","ASICS Europe BV"
"4","Ramsdens Financial Ltd"
"4","Re Resource Group"
"5","VOGUE DIAMOND"
"5","Shell Energy"
"5","Acoustic"
"5","GAVBIZ LTD"
"5","Juicebaby"
"5","NU LINE BUILDERS MERCHANTS LTD"
"8","Randstad CPE"
"8","Paragon Bathroom Solutions, paragon trade services"
"10","Choice Care Group"
"10","Age UK Bedfordshire"
"11","Schmidt"
"13","Vospers Motor House Ltd"
"20","Triumph Consultants Ltd"
"30","Randolphs recruitment"
