"id","properties/frequency_minutes","tags/property/0","extra_data/pool/name","extra_data/split/data_path","filter/tokenizer/text()","properties/description","properties/conf"
"257","0","","","","","reed.co.uk: XML all ads - 'Registration 0.00'","scraper/uk/www/job/reed2.conf"
"258","0","","","","","reed.co.uk: XML all ads - 'Registration 0.10'","scraper/uk/www/job/reed2.conf"
"259","0","","","","","reed.co.uk: XML all ads - 'Registration 0.11'","scraper/uk/www/job/reed2.conf"
"260","0","","","","","reed.co.uk: XML all ads - 'Registration 0.12'","scraper/uk/www/job/reed2.conf"
"261","0","","","","","reed.co.uk: XML all ads - 'Registration 0.13'","scraper/uk/www/job/reed2.conf"
"262","0","","","","","reed.co.uk: XML all ads - 'Registration 0.14'","scraper/uk/www/job/reed2.conf"
"263","0","","","","","reed.co.uk: XML all ads - 'Registration 0.15'","scraper/uk/www/job/reed2.conf"
"264","0","","","","","reed.co.uk: XML all ads - 'Registration 0.16'","scraper/uk/www/job/reed2.conf"
"265","0","","","","","reed.co.uk: XML all ads - 'Registration 0.17'","scraper/uk/www/job/reed2.conf"
"266","0","","","","","reed.co.uk: XML all ads - 'Registration 0.18'","scraper/uk/www/job/reed2.conf"
"267","0","","","","","reed.co.uk: XML all ads - 'Registration 0.19'","scraper/uk/www/job/reed2.conf"
"268","0","","","","","reed.co.uk: XML all ads - 'Registration 0.20'","scraper/uk/www/job/reed2.conf"
"269","0","","","","","reed.co.uk: XML all ads - 'Registration 0.21'","scraper/uk/www/job/reed2.conf"
"270","0","","","","","reed.co.uk: XML all ads - 'Registration 0.22'","scraper/uk/www/job/reed2.conf"
"271","0","","","","","reed.co.uk: XML all ads - 'Registration 0.23'","scraper/uk/www/job/reed2.conf"
"272","0","","","","","reed.co.uk: XML all ads - 'Registration 0.24'","scraper/uk/www/job/reed2.conf"
"273","0","","","","","reed.co.uk: XML all ads - 'Registration 0.25'","scraper/uk/www/job/reed2.conf"
"274","0","","","","","reed.co.uk: XML all ads - 'Registration 0.26'","scraper/uk/www/job/reed2.conf"
"275","0","","","","","reed.co.uk: XML all ads - 'Registration 0.27'","scraper/uk/www/job/reed2.conf"
"276","0","","","","","reed.co.uk: XML all ads - 'Registration 0.28'","scraper/uk/www/job/reed2.conf"
"277","0","","","","","reed.co.uk: XML all ads - 'Registration 0.29'","scraper/uk/www/job/reed2.conf"
"279","0","","","","","reed.co.uk: XML all ads - 'Registration 0.30'","scraper/uk/www/job/reed2.conf"
"280","0","","","","","reed.co.uk: XML all ads - 'Registration Other'","scraper/uk/www/job/reed2.conf"
"282","0","","","","","reed.co.uk: XML all ads - 'Low response 0.00'","scraper/uk/www/job/reed2.conf"
"283","0","","","","","reed.co.uk: XML all ads - 'Low response 0.10'","scraper/uk/www/job/reed2.conf"
"284","0","","","","","reed.co.uk: XML all ads - 'Low response 0.11'","scraper/uk/www/job/reed2.conf"
"285","0","","","","","reed.co.uk: XML all ads - 'Low response 0.12'","scraper/uk/www/job/reed2.conf"
"288","0","","","","","reed.co.uk: XML all ads - 'Low response 0.13'","scraper/uk/www/job/reed2.conf"
"289","0","","","","","reed.co.uk: XML all ads - 'Low response 0.14'","scraper/uk/www/job/reed2.conf"
"290","0","","","","","reed.co.uk: XML all ads - 'Low response 0.15'","scraper/uk/www/job/reed2.conf"
"291","0","","","","","reed.co.uk: XML all ads - 'Low response 0.16'","scraper/uk/www/job/reed2.conf"
"292","0","","","","","reed.co.uk: XML all ads - 'Low response 0.17'","scraper/uk/www/job/reed2.conf"
"293","0","","","","","reed.co.uk: XML all ads - 'Low response 0.18'","scraper/uk/www/job/reed2.conf"
"294","0","","","","","reed.co.uk: XML all ads - 'Low response 0.19'","scraper/uk/www/job/reed2.conf"
"295","0","","","","","reed.co.uk: XML all ads - 'Low response 0.20'","scraper/uk/www/job/reed2.conf"
"297","360","fetcher","reed-adgroup-feedonomics-uk","ad_group","---\nnot:\n  company: qr~Barclays~si\n","reed.co.uk: XML all ads (only for fetching)","scraper/uk/www/job/reed_feedonomics.conf"
"298","0","","","","","reed.co.uk: XML all ads - 'Low response 0.21'","scraper/uk/www/job/reed2.conf"
"12249","0","","","","","reed.co.uk: XML all ads - 'Low response 0.22'","scraper/uk/www/job/reed2.conf"
"12250","0","","","","","reed.co.uk: XML all ads - 'Low response 0.23'","scraper/uk/www/job/reed2.conf"
"12251","0","","","","","reed.co.uk: XML all ads - 'Low response 0.24'","scraper/uk/www/job/reed2.conf"
"12252","0","","","","","reed.co.uk: XML all ads - 'Low response 0.25'","scraper/uk/www/job/reed2.conf"
"12253","0","","","","","reed.co.uk: XML all ads - 'Low response 0.26'","scraper/uk/www/job/reed2.conf"
"12254","0","","","","","reed.co.uk: XML all ads - 'Low response 0.27'","scraper/uk/www/job/reed2.conf"
"12255","0","","","","","reed.co.uk: XML all ads - 'Low response 0.28'","scraper/uk/www/job/reed2.conf"
"12256","0","","","","","reed.co.uk: XML all ads - 'Low response 0.29'","scraper/uk/www/job/reed2.conf"
"12257","0","","","","","reed.co.uk: XML all ads - 'Low response 0.30'","scraper/uk/www/job/reed2.conf"
"12258","0","","","","","reed.co.uk: XML all ads - 'Low response Other'","scraper/uk/www/job/reed2.conf"
"12259","0","","","","","reed.co.uk: XML all ads - 'Top 250 0.00'","scraper/uk/www/job/reed2.conf"
"12260","0","","","","","reed.co.uk: XML all ads - 'Top 250 0.10'","scraper/uk/www/job/reed2.conf"
"12261","0","","","","","reed.co.uk: XML all ads - 'Top 250 0.11'","scraper/uk/www/job/reed2.conf"
"12262","0","","","","","reed.co.uk: XML all ads - 'Top 250 0.12'","scraper/uk/www/job/reed2.conf"
"12263","0","","","","","reed.co.uk: XML all ads - 'Top 250 0.13'","scraper/uk/www/job/reed2.conf"
"12264","0","","","","","reed.co.uk: XML all ads - 'Top 250 0.14'","scraper/uk/www/job/reed2.conf"
"12265","0","","","","","reed.co.uk: XML all ads - 'Top 250 0.15'","scraper/uk/www/job/reed2.conf"
"12266","0","","","","","reed.co.uk: XML all ads - 'Top 250 0.16'","scraper/uk/www/job/reed2.conf"
"12267","0","","","","","reed.co.uk: XML all ads - 'Top 250 0.17'","scraper/uk/www/job/reed2.conf"
"12268","0","","","","","reed.co.uk: XML all ads - 'Top 250 0.18'","scraper/uk/www/job/reed2.conf"
"12269","0","","","","","reed.co.uk: XML all ads - 'Top 250 0.19'","scraper/uk/www/job/reed2.conf"
"12270","0","","","","","reed.co.uk: XML all ads - 'Top 250 0.20'","scraper/uk/www/job/reed2.conf"
"12271","0","","","","","reed.co.uk: XML all ads - 'Top 250 0.21'","scraper/uk/www/job/reed2.conf"
"12272","0","","","","","reed.co.uk: XML all ads - 'Top 250 0.22'","scraper/uk/www/job/reed2.conf"
"12273","0","","","","","reed.co.uk: XML all ads - 'Top 250 0.23'","scraper/uk/www/job/reed2.conf"
"12274","0","","","","","reed.co.uk: XML all ads - 'Top 250 0.24'","scraper/uk/www/job/reed2.conf"
"12275","0","","","","","reed.co.uk: XML all ads - 'Top 250 0.25'","scraper/uk/www/job/reed2.conf"
"12276","0","","","","","reed.co.uk: XML all ads - 'Top 250 0.26'","scraper/uk/www/job/reed2.conf"
"12277","0","","","","","reed.co.uk: XML all ads - 'Top 250 0.27'","scraper/uk/www/job/reed2.conf"
"12278","0","","","","","reed.co.uk: XML all ads - 'Top 250 0.28'","scraper/uk/www/job/reed2.conf"
"12279","0","","","","","reed.co.uk: XML all ads - 'Top 250 0.29'","scraper/uk/www/job/reed2.conf"
"12280","0","","","","","reed.co.uk: XML all ads - 'Top 250 0.30'","scraper/uk/www/job/reed2.conf"
"12281","0","","","","","reed.co.uk: XML all ads - 'Top 250 Other'","scraper/uk/www/job/reed2.conf"
"12282","0","split","reed-adgroup-uk","","---\nand:\n- AD_GROUP: qr/^\s*REG\s*$|Sales\s*Test|HR\s*Test/si\n- category: qr/^\s*Other\s*$/si\n","reed.co.uk: XML all ads - 'Other'","scraper/uk/www/job/reed2.conf"
"12283","0","","","","","reed.co.uk: XML all ads - 'Other 0.00'","scraper/uk/www/job/reed2.conf"
"12284","0","","","","","reed.co.uk: XML all ads - 'IT campaign'","scraper/uk/www/job/reed2.conf"
"12285","0","","","","","reed.co.uk: XML all ads - 'Retail campaign 0.00'","scraper/uk/www/job/reed2.conf"
"12286","0","","","","","reed.co.uk: XML all ads - 'Retail campaign 0.12'","scraper/uk/www/job/reed2.conf"
"15670","0","","","","","reed.co.uk: XML all ads - 'Retail campaign 0.25'","scraper/uk/www/job/reed2.conf"
"15671","0","split","reed-adgroup-uk","","---\nand:\n- AD_GROUP: qr/^\s*REG\s*$|Sales\s*Test|HR\s*Test/si\n- category: qr/^\s*Accountancy\s*$/si\n","reed.co.uk: XML all ads - 'Accountancy'","scraper/uk/www/job/reed2.conf"
"15672","0","split","reed-adgroup-uk","","---\nand:\n- AD_GROUP: qr/^\s*REG\s*$|Sales\s*Test|HR\s*Test/si\n- category: qr/Accountancy\s*\(Qualified\)/si\n","reed.co.uk: XML all ads - 'Accountancy (Qualified)'","scraper/uk/www/job/reed2.conf"
"15673","0","split","reed-adgroup-uk","","---\nand:\n- AD_GROUP: qr/^\s*REG\s*$|Sales\s*Test|HR\s*Test/si\n- category: qr/Admin,\s*Secretarial\s*&\s*PA/si\n","reed.co.uk: XML all ads - 'Admin, Secretarial & PA'","scraper/uk/www/job/reed2.conf"
"15674","0","split","reed-adgroup-uk","","---\nand:\n- AD_GROUP: qr/^\s*REG\s*$|Sales\s*Test|HR\s*Test/si\n- category: qr/Apprenticeships/si\n","reed.co.uk: XML all ads - 'Apprenticeships'","scraper/uk/www/job/reed2.conf"
"16623","0","split","reed-adgroup-uk","","---\nand:\n- AD_GROUP: qr/^\s*REG\s*$|Sales\s*Test|HR\s*Test/si\n- category: qr/Banking/si\n","reed.co.uk: XML all ads - 'Banking'","scraper/uk/www/job/reed2.conf"
"16624","0","split","reed-adgroup-uk","","---\nand:\n- AD_GROUP: qr/^\s*REG\s*$|Sales\s*Test|HR\s*Test/si\n- category: qr/Charity\s*&\s*Voluntary/si\n","reed.co.uk: XML all ads - 'Charity & Voluntary'","scraper/uk/www/job/reed2.conf"
"29850","0","split","reed-adgroup-uk","","---\nand:\n- AD_GROUP: qr/^\s*REG\s*$|Sales\s*Test|HR\s*Test/si\n- category: qr/Construction\s*&\s*Property/si\n","reed.co.uk: XML all ads - 'Construction & Property'","scraper/uk/www/job/reed2.conf"
"29851","0","split","reed-adgroup-uk","","---\nand:\n- AD_GROUP: qr/^\s*REG\s*$|Sales\s*Test|HR\s*Test/si\n- category: qr/Customer\s*Service/si\n","reed.co.uk: XML all ads - 'Customer Service'","scraper/uk/www/job/reed2.conf"
"32347","0","split","reed-adgroup-uk","","---\nand:\n- AD_GROUP: qr/^\s*REG\s*$|Sales\s*Test|HR\s*Test/si\n- category: qr/^\s*Education\s*$/si\n","reed.co.uk: XML all ads - 'Education'","scraper/uk/www/job/reed2.conf"
"32348","0","split","reed-adgroup-uk","","---\nand:\n- AD_GROUP: qr/^\s*REG\s*$|Sales\s*Test|HR\s*Test/si\n- category: qr/^\s*Energy\s*$/si\n","reed.co.uk: XML all ads - 'Energy'","scraper/uk/www/job/reed2.conf"
"32349","0","split","reed-adgroup-uk","","---\nand:\n- AD_GROUP: qr/^\s*REG\s*$|Sales\s*Test|HR\s*Test/si\n- category: qr/Engineering/si\n","reed.co.uk: XML all ads - 'Engineering'","scraper/uk/www/job/reed2.conf"
"32350","0","split","reed-adgroup-uk","","---\nand:\n- AD_GROUP: qr/^\s*REG\s*$|Sales\s*Test|HR\s*Test/si\n- category: qr/Estate\s*Agency/si\n","reed.co.uk: XML all ads - 'Estate Agency'","scraper/uk/www/job/reed2.conf"
"32351","0","split","reed-adgroup-uk","","---\nand:\n- AD_GROUP: qr/^\s*REG\s*$|Sales\s*Test|HR\s*Test/si\n- category: qr/Financial\s*services/si\n","reed.co.uk: XML all ads - 'Financial Services'","scraper/uk/www/job/reed2.conf"
"32352","0","split","reed-adgroup-uk","","---\nand:\n- AD_GROUP: qr/^\s*REG\s*$|Sales\s*Test|HR\s*Test/si\n- category: qr/FMCG/si\n","reed.co.uk: XML all ads - 'FMCG'","scraper/uk/www/job/reed2.conf"
"32353","0","split","reed-adgroup-uk","","---\nand:\n- AD_GROUP: qr/^\s*REG\s*$|Sales\s*Test|HR\s*Test/si\n- category: qr/General\s*Insurance/si\n","reed.co.uk: XML all ads - 'General Insurance'","scraper/uk/www/job/reed2.conf"
"40940","0","split","reed-adgroup-uk","","---\nand:\n- AD_GROUP: qr/^\s*REG\s*$|Sales\s*Test|HR\s*Test/si\n- category: qr/Graduate\s*Training/si\n","reed.co.uk: XML all ads - 'Graduate Training & Internships'","scraper/uk/www/job/reed2.conf"
"40941","0","split","reed-adgroup-uk","","---\nand:\n- AD_GROUP: qr/^\s*REG\s*$|Sales\s*Test|HR\s*Test/si\n- category: qr/Health\s*&\s*medicine/si\n","reed.co.uk: XML all ads - 'Health & Medicine'","scraper/uk/www/job/reed2.conf"
"40942","0","split","reed-adgroup-uk","","---\nand:\n- AD_GROUP: qr/^\s*REG\s*$|Sales\s*Test|HR\s*Test/si\n- category: qr/Hospitality\s*&\s*catering/si\n","reed.co.uk: XML all ads - 'Hospitality & Catering'","scraper/uk/www/job/reed2.conf"
"40943","0","split","reed-adgroup-uk","","---\nand:\n- AD_GROUP: qr/^\s*REG\s*$|Sales\s*Test|HR\s*Test/si\n- category: qr/Human\s*resources/si\n","reed.co.uk: XML all ads - 'Human Resources'","scraper/uk/www/job/reed2.conf"
"40944","0","split","reed-adgroup-uk","","---\nand:\n- AD_GROUP: qr/^\s*REG\s*$|Sales\s*Test|HR\s*Test/si\n- category: qr/IT\s*&\s*telecoms/si\n","reed.co.uk: XML all ads - 'IT & Telecoms'","scraper/uk/www/job/reed2.conf"
"40945","0","split","reed-adgroup-uk","","---\nand:\n- AD_GROUP: qr/^\s*REG\s*$|Sales\s*Test|HR\s*Test/si\n- category: qr/Legal/si\n","reed.co.uk: XML all ads - 'Legal'","scraper/uk/www/job/reed2.conf"
"40946","0","split","reed-adgroup-uk","","---\nand:\n- AD_GROUP: qr/^\s*REG\s*$|Sales\s*Test|HR\s*Test/si\n- category: qr/Leisure\s*&\s*Tourism/si\n","reed.co.uk: XML all ads - 'Leisure & Tourism'","scraper/uk/www/job/reed2.conf"
"40947","0","split","reed-adgroup-uk","","---\nand:\n- AD_GROUP: qr/^\s*REG\s*$|Sales\s*Test|HR\s*Test/si\n- category: qr/Manufacturing/si\n","reed.co.uk: XML all ads - 'Manufacturing'","scraper/uk/www/job/reed2.conf"
"40948","0","split","reed-adgroup-uk","","---\nand:\n- AD_GROUP: qr/^\s*REG\s*$|Sales\s*Test|HR\s*Test/si\n- category: qr/Marketing\s*&\s*PR/si\n","reed.co.uk: XML all ads - 'Marketing & PR'","scraper/uk/www/job/reed2.conf"
"40949","0","split","reed-adgroup-uk","","---\nand:\n- AD_GROUP: qr/^\s*REG\s*$|Sales\s*Test|HR\s*Test/si\n- category: qr/Media,\s*Digital\s*&\s*Creative/si\n","reed.co.uk: XML all ads - 'Media, Digital & Creative'","scraper/uk/www/job/reed2.conf"
"40950","0","split","reed-adgroup-uk","","---\nand:\n- AD_GROUP: qr/^\s*REG\s*$|Sales\s*Test|HR\s*Test/si\n- category: qr/Motoring\s*&\s*Automotive/si\n","reed.co.uk: XML all ads - 'Motoring & Automotive'","scraper/uk/www/job/reed2.conf"
"40951","0","split","reed-adgroup-uk","","---\nand:\n- AD_GROUP: qr/^\s*REG\s*$|Sales\s*Test|HR\s*Test/si\n- category: qr/purchasing/si\n","reed.co.uk: XML all ads - 'Purchasing'","scraper/uk/www/job/reed2.conf"
"40952","0","split","reed-adgroup-uk","","---\nand:\n- AD_GROUP: qr/^\s*REG\s*$|Sales\s*Test|HR\s*Test/si\n- category: qr/Recruitment\s*Consultancy/si\n","reed.co.uk: XML all ads - 'Recruitment Consultancy'","scraper/uk/www/job/reed2.conf"
"40953","0","split","reed-adgroup-uk","","---\nand:\n- AD_GROUP: qr/^\s*REG\s*$|Sales\s*Test|HR\s*Test/si\n- category: qr/retail/si\n","reed.co.uk: XML all ads - 'Retail'","scraper/uk/www/job/reed2.conf"
"40954","0","split","reed-adgroup-uk","","---\nand:\n- AD_GROUP: qr/^\s*REG\s*$|Sales\s*Test|HR\s*Test/si\n- category: qr/^\s*sales\s*$/si\n","reed.co.uk: XML all ads - 'Sales'","scraper/uk/www/job/reed2.conf"
"40955","0","split","reed-adgroup-uk","","---\nand:\n- AD_GROUP: qr/^\s*REG\s*$|Sales\s*Test|HR\s*Test/si\n- category: qr/scientific/si\n","reed.co.uk: XML all ads - 'Scientific'","scraper/uk/www/job/reed2.conf"
"40956","0","split","reed-adgroup-uk","","---\nand:\n- AD_GROUP: qr/^\s*REG\s*$|Sales\s*Test|HR\s*Test/si\n- category: qr/Security\s*&\s*safety/si\n","reed.co.uk: XML all ads - 'Security & Safety'","scraper/uk/www/job/reed2.conf"
"40957","0","split","reed-adgroup-uk","","---\nand:\n- AD_GROUP: qr/^\s*REG\s*$|Sales\s*Test|HR\s*Test/si\n- category: qr/social\s*care/si\n","reed.co.uk: XML all ads - 'Social Care'","scraper/uk/www/job/reed2.conf"
"40958","0","split","reed-adgroup-uk","","---\nand:\n- AD_GROUP: qr/^\s*REG\s*$|Sales\s*Test|HR\s*Test/si\n- category: qr/Strategy\s*&\s*consultancy/si\n","reed.co.uk: XML all ads - 'Strategy & Consultancy'","scraper/uk/www/job/reed2.conf"
"40959","0","split","reed-adgroup-uk","","---\nand:\n- AD_GROUP: qr/^\s*REG\s*$|Sales\s*Test|HR\s*Test/si\n- category: qr/^\s*training\s*$/si\n","reed.co.uk: XML all ads - 'Training'","scraper/uk/www/job/reed2.conf"
"40960","0","split","reed-adgroup-uk","","---\nand:\n- AD_GROUP: qr/^\s*REG\s*$|Sales\s*Test|HR\s*Test/si\n- category: qr/Transport\s*&\s*Logistics/si\n","reed.co.uk: XML all ads - 'Transport & Logistics'","scraper/uk/www/job/reed2.conf"
"41409","0","","","","","reed.co.uk: XML all ads - Reed jobs 0.50","scraper/shared/posted_ad_jobs.conf"
"41503","0","","","","","reed.co.uk: XML all ads - HMPrison","scraper/shared/posted_ad_jobs.conf"
"42000","0","","","","","reed.co.uk: XML all ads - 'Retail campaign 0.30'","scraper/uk/www/job/reed2.conf"
"51019","0","fetcher","reed-adgroup-uk","AD_GROUP","---\ncountry: adzuna:location:uk\n","reed.co.uk: XML all ads 2 (Only for fetching)","scraper/uk/www/job/reed2.conf"
"51020","0","split","reed-adgroup-uk","","---\nAD_GROUP: qr/Engineering\s*Surveyor\s*Scotland/si\n","reed.co.uk: XML all ads - 'Engineering Surveyor Scotland'","scraper/uk/www/job/reed2.conf"
"51021","0","split","reed-adgroup-uk","","---\nAD_GROUP: qr/Education\s*Teacher\s*SW\s*England/si\n","reed.co.uk: XML all ads - 'Education Teacher SW England'","scraper/uk/www/job/reed2.conf"
"51022","0","split","reed-adgroup-uk","","---\nAD_GROUP: qr/Financial\s*services\s*Paraplanner\s*SW\s*England/si\n","reed.co.uk: XML all ads - 'Financial services Paraplanner SW England'","scraper/uk/www/job/reed2.conf"
"51023","0","split","reed-adgroup-uk","","---\nAD_GROUP: qr/Engineering\s*Surveyor\s*SE\s*England/si\n","reed.co.uk: XML all ads - 'Engineering Surveyor SE England'","scraper/uk/www/job/reed2.conf"
"51024","0","split","reed-adgroup-uk","","---\nAD_GROUP: qr/HS\s*Physiotherapist\s*SE\s*England/si\n","reed.co.uk: XML all ads - 'HS Physiotherapist SE England'","scraper/uk/www/job/reed2.conf"
"51025","0","split","reed-adgroup-uk","","---\nAD_GROUP: qr/Hospitality\s*Chef\s*SE\s*England/si\n","reed.co.uk: XML all ads - 'Hospitality Chef SE England'","scraper/uk/www/job/reed2.conf"
"51026","0","split","reed-adgroup-uk","","","reed.co.uk: XML all ads - 'Others'","scraper/uk/www/job/reed2.conf"
"55068","0","split","reed-adgroup-uk","","---\nAD_GROUP: qr/Hospitality\s*Test\s*-\s*Per\s*Hour/si\n","reed.co.uk: XML all ads - 'Hospitality Test - Per Hour'","scraper/uk/www/job/reed2.conf"
"55069","0","split","reed-adgroup-uk","","---\nAD_GROUP: qr/Hospitality\s*Test\s*-\s*Per\s*day/si\n","reed.co.uk: XML all ads - 'Hospitality Test - Per day'","scraper/uk/www/job/reed2.conf"
"55070","0","split","reed-adgroup-uk","","---\nAD_GROUP: qr/Hospitality\s*Test\s*-\s*Per\s*Annum/si\n","reed.co.uk: XML all ads - 'Hospitality Test - Per Annum'","scraper/uk/www/job/reed2.conf"
"68979","0","split","reed-adgroup-uk","","---\nAD_GROUP: qr/Boost\s*-\s*Halfords/si\n","reed.co.uk: XML all ads - 'Boost - Halfords'","scraper/uk/www/job/reed2.conf"
"68980","0","split","reed-adgroup-feedonomics-uk","","---\nad_group: qr/Group\s*5/si\n","reed.co.uk: XML all ads - 'Group 5 (Health and Social Care)'","scraper/uk/www/job/reed_feedonomics.conf"
"78414","0","split","reed-adgroup-uk","","---\nAD_GROUP: qr/KD\s*3\s*Testing/si\n","reed.co.uk: XML all ads - 'KD 3 Testing'","scraper/uk/www/job/reed2.conf"
"94357","0","split","reed-adgroup-uk","","---\nand:\n- AD_GROUP: qr/Developer\s*Roles\s*$/si\n- cpc: qr/0\.23/s\n","reed.co.uk: XML all ads - 'Developer Roles 0.23'","scraper/uk/www/job/reed2.conf"
"106708","0","split","reed-adgroup-uk","","---\nand:\n- AD_GROUP: qr/Developer\s*Roles\s*2/si\n- cpc: qr/0\.23/s\n","reed.co.uk: XML all ads - 'Developer Roles 2 0.23'","scraper/uk/www/job/reed2.conf"
"106709","0","split","reed-adgroup-uk","","---\nAD_GROUP: qr/Tier\s*1/si\n","reed.co.uk: XML all ads - 'Tier 1'","scraper/uk/www/job/reed2.conf"
"106710","0","split","reed-adgroup-uk","","---\nAD_GROUP: qr/Tier\s*2/si\n","reed.co.uk: XML all ads - 'Tier 2'","scraper/uk/www/job/reed2.conf"
"106711","0","split","reed-adgroup-uk","","---\nAD_GROUP: qr/Tier\s*3/si\n","reed.co.uk: XML all ads - 'Tier 3'","scraper/uk/www/job/reed2.conf"
"111580","0","split","reed-adgroup-uk","","---\nand:\n- AD_GROUP: qr/Developer\s*Roles\s*$/si\n- cpc: qr/0\.26/s\n","reed.co.uk: XML all ads - 'Developer Roles 0.26'","scraper/uk/www/job/reed2.conf"
"111581","0","split","reed-adgroup-uk","","---\nand:\n- AD_GROUP: qr/Developer\s*Roles\s*2/si\n- cpc: qr/0\.26/s\n","reed.co.uk: XML all ads - 'Developer Roles 2 0.26'","scraper/uk/www/job/reed2.conf"
"116353","0","split","reed-adgroup-uk","","---\nAD_GROUP: qr/Organic/si\n","reed.co.uk: XML all ads - 'Organic'","scraper/uk/www/job/reed2.conf"
"118509","0","split","reed-adgroup-feedonomics-uk","","---\nad_group: qr/Group\s*13/si\n","reed.co.uk: XML all ads - 'Group 13 (Security and Safety)'","scraper/uk/www/job/reed_feedonomics.conf"
"120634","0","split","reed-adgroup-feedonomics-uk","","---\nad_group: qr/Group\s*6/si\n","reed.co.uk: XML all ads - 'Group 6 (Hospitality)'","scraper/uk/www/job/reed_feedonomics.conf"
"120635","0","split","reed-adgroup-feedonomics-uk","","---\nad_group: qr/Group\s*9/si\n","reed.co.uk: XML all ads - 'Group 9 (Legal)'","scraper/uk/www/job/reed_feedonomics.conf"
"123546","0","split","reed-adgroup-feedonomics-uk","","---\nad_group: qr/Group\s*3/si\n","reed.co.uk: XML all ads - 'Group 3 (Engineering)'","scraper/uk/www/job/reed_feedonomics.conf"
"123547","0","split","reed-adgroup-feedonomics-uk","","---\nad_group: qr/Group\s*7/si\n","reed.co.uk: XML all ads - 'Group 7 (Human Resources)'","scraper/uk/www/job/reed_feedonomics.conf"
"123548","0","split","reed-adgroup-feedonomics-uk","","---\nad_group: qr/Group\s*11/si\n","reed.co.uk: XML all ads - 'Group 11 (Marketing and Media)'","scraper/uk/www/job/reed_feedonomics.conf"
"125183","0","split","reed-adgroup-uk","","---\nand:\n- ad_group: qr/Developer\s*Roles\s*$/si\n- cpc: qr/0\.28/s\n","reed.co.uk: XML all ads - 'Developer Roles 0.28'","scraper/uk/www/job/reed2.conf"
"125184","0","split","reed-adgroup-uk","","---\nand:\n- ad_group: qr/Developer\s*Roles\s*2/si\n- cpc: qr/0\.30/s\n","reed.co.uk: XML all ads - 'Developer Roles 2 0.30'","scraper/uk/www/job/reed2.conf"
"126989","0","split","reed-adgroup-uk","","---\nand:\n- ad_group: qr/Developer\s*Roles\s*$/si\n- cpc: qr/0\.30/s\n","reed.co.uk: XML all ads - 'Developer Roles 0.30'","scraper/uk/www/job/reed2.conf"
"126990","0","split","reed-adgroup-uk","","---\nand:\n- ad_group: qr/Developer\s*Roles\s*$/si\n- cpc: qr/0\.32/s\n","reed.co.uk: XML all ads - 'Developer Roles 0.32'","scraper/uk/www/job/reed2.conf"
"126991","0","split","reed-adgroup-uk","","---\nand:\n- ad_group: qr/Developer\s*Roles\s*2/si\n- cpc: qr/0\.32/s\n","reed.co.uk: XML all ads - 'Developer Roles 2 0.32'","scraper/uk/www/job/reed2.conf"
"127942","0","split","reed-adgroup-feedonomics-uk","","---\nad_group: qr/Group\s*8/si\n","reed.co.uk: XML all ads - 'Group 8 (IT)'","scraper/uk/www/job/reed_feedonomics.conf"
"127943","0","split","reed-adgroup-feedonomics-uk","","---\nad_group: qr/Group\s*12/si\n","reed.co.uk: XML all ads - 'Group 12 (Sales)'","scraper/uk/www/job/reed_feedonomics.conf"
"132997","0","split","reed-adgroup-feedonomics-uk","","---\nad_group: qr/Group\s*1/si\n","reed.co.uk: XML all ads - 'Group 1 (Administration)'","scraper/uk/www/job/reed_feedonomics.conf"
"132998","0","split","reed-adgroup-feedonomics-uk","","---\nad_group: qr/Group\s*2/si\n","reed.co.uk: XML all ads - 'Group 2 (Education)'","scraper/uk/www/job/reed_feedonomics.conf"
"132999","0","split","reed-adgroup-feedonomics-uk","","---\nad_group: qr/Group\s*4/si\n","reed.co.uk: XML all ads - 'Group 4 (Financial Services)'","scraper/uk/www/job/reed_feedonomics.conf"
"133000","0","split","reed-adgroup-feedonomics-uk","","---\nad_group: qr/Group\s*10/si\n","reed.co.uk: XML all ads - 'Group 10 (Logistics & Transport)'","scraper/uk/www/job/reed_feedonomics.conf"
"142327","0","split","reed-adgroup-uk","","---\nad_group: qr/RKD\s*-\s*5\s*SEE/si\n","reed.co.uk: XML all ads - 'RKD - 5 SEE'","scraper/uk/www/job/reed2.conf"
"142328","0","split","reed-adgroup-uk","","---\nad_group: qr/RKD\s*-\s*5\s*YH/si\n","reed.co.uk: XML all ads - 'RKD - 5 YH'","scraper/uk/www/job/reed2.conf"
"142329","0","split","reed-adgroup-uk","","---\nad_group: qr/RKD\s*-\s*3\s*YH/si\n","reed.co.uk: XML all ads - 'RKD - 3 YH'","scraper/uk/www/job/reed2.conf"
"142330","0","split","reed-adgroup-uk","","---\nad_group: qr/RKD\s*-\s*4\s*L/si\n","reed.co.uk: XML all ads - 'RKD - 4 L'","scraper/uk/www/job/reed2.conf"
"142331","0","split","reed-adgroup-uk","","---\nad_group: qr/RKD\s*-\s*11\s*L/si\n","reed.co.uk: XML all ads - 'RKD - 11 L'","scraper/uk/www/job/reed2.conf"
"148451","0","","","","","INACTIVE reed.co.uk: XML all ads - 'HC-One'","scraper/uk/www/job/reed2.conf"
"148452","0","","","","","INACTIVE reed.co.uk: XML all ads - 'Interserve'","scraper/uk/www/job/reed2.conf"
"148453","0","","","","","INACTIVE reed.co.uk: XML all ads - 'Enterprise Rent-A-Car'","scraper/uk/www/job/reed2.conf"
"148454","0","","","","","INACTIVE reed.co.uk: XML all ads - 'Howden Joinery'","scraper/uk/www/job/reed2.conf"
"148455","0","","","","","INACTIVE reed.co.uk: XML all ads - 'Tui'","scraper/uk/www/job/reed2.conf"
"148456","0","","","","","INACTIVE reed.co.uk: XML all ads - 'Welcome Break'","scraper/uk/www/job/reed2.conf"
"148457","0","","","","","INACTIVE reed.co.uk: XML all ads - 'Anglican Water'","scraper/uk/www/job/reed2.conf"
"148458","0","","","","","INACTIVE reed.co.uk: XML all ads - 'Sytner Group'","scraper/uk/www/job/reed2.conf"
"148459","0","","","","","INACTIVE reed.co.uk: XML all ads - 'Willis Tower'","scraper/uk/www/job/reed2.conf"
"148460","0","","","","","INACTIVE reed.co.uk: XML all ads - 'NHS Professionals'","scraper/uk/www/job/reed2.conf"
