"1","Monzo Bank"
"1","Folly Farm Adventure Park & Zoo"
"1","Choice Care Group"
"1","J D Wetherspoon plc"
"1","Superdrug"
"1","Willis Towers Watson"
"1","Cambria Maintenance Services"
"1","The North Face"
"1","Wildland Limited"
"1","MJB Precision Engineering Ltd"
"1","Ashdown Park Hotel and Country Club"
"1","Cobbs Farm Shops"
"1","W McClure Ltd"
"1","Peter Cooper Motor Group"
"1","The White Rabbit Pizza Co"
"1","Tim Hortons UK & Ireland Ltd"
"1","City of London Freemen's School"
"1","Honey Birdette  Ltd"
"1","Trendset Productions Ltd"
"1","Elite Group   Branded Football Merchandising"
"1","The Queens Arms"
"1","Burrowbeck Community Care"
"1","DUFF AND PHELPS, LLC"
"1","Morgan Cargo"
"1","The Yan at Broadrayne"
"1","Fairfax & Favor"
"1","Socitm Advisory"
"1","Brookfield Barn "
"1","Transport Company"
"1","EyeSafe"
"1","Bennett’s Fish & Chips"
"1","Fish Brothers  Ltd"
"1","Axis12 Ltd"
"1","Whitefield Academy Trust"
"1","Westcountry Fruit Sales Ltd"
"1","ORS HD"
"1","Happy Socks"
"1","Johnsons Workwear Ltd"
"1","Holiday Inn Express Manchester"
"1","Brindley Volvo"
"1","ACE Sameday Couriers"
"1","Achieve Lifestyle"
"1","Excel Executive Ltd"
"1","QA Apprenticeships"
"1","Freightroute"
"1","IDOX Group"
"1","Hightown Housing Association"
"1","MAN Commercial Protection Ltd"
"1","Amberstone"
"1","MSI Group Ltd"
"1","Bury Developments Ltd"
"1","St. Luke's Hospital Oxford"
"1","Go Ape"
"1","Crieff Hydro"
"1","Wintech Limited"
"1","Boynton Executive Cars"
"1","Rejuv Lab London"
"1","Teleperformance"
"1","Panorama Antennas LTD"
"1","Abbotsbury Tourism Ltd"
"1","Integrated Solutions UK"
"1","MedExpress"
"1","Drink Warehouse UK"
"2","Schoen Clinic"
"2","Progress Care Solutions"
"2","Bushboard "
"2","Anglia UK Ltd"
"2","Qube Recruitment"
"2","SMH Fleet Solutions Ltd"
"2","Premier Fleet Services Ltd"
"2","Go 2 Gas Solutions Ltd"
"2","Lifterz Ltd"
"2","FUTURE CARE GROUP"
"2","Suffolk County Council"
"2","The Sevenoaks Garden Centre"
"2","AFE Recruitment"
"2","Domino's Pizza   SK"
"2","Yorston Lodge School"
"2","Lidl"
"2","Rixonway Kitchens"
"2","Thuasne UK Ltd"
"2","Rota Engineering Limited"
"2","Goldman & Fine Group Ltd"
"2","Care UK Residential Care Services"
"2","Micro Focus"
"2","Solsken Limited"
"2","Lights Control Rigging Productions Ltd"
"2","Kirkland Associates"
"2","Associated Waste Management"
"2","TLcare Havering Ltd"
"2","easyJet"
"3","Camlough Pharmacy"
"3","Savona Provisions Ltd"
"3","Homeshield Direct Ltd"
"3","Blackpool Minibuses"
"3","Farleigh Golf Club"
"3","Luca's Doggy Day Care & Grooming"
"3","TalentPool"
"3","Quanta"
"3","HR GO Recruitment Upminster"
"3","Rise Technical Recruitment Limited"
"3","Modulek Ltd"
"3","JK Dental Design Laboratory"
"3","First UK Bus"
"3","A2B Newquay Travel Ltd"
"3","DOTET"
"3","Hitachi Capital UK"
"3","rtkeedwell"
"3","Paragon Meed Recruitment"
"3","Portsmouth minibus and coach hire"
"3","westgate vehicle hire"
"4","HG Stephensons Ltd"
"4","Mervyn Lambert Plant Ltd"
"4","Rowden House School"
"4","XP Processing"
"4","Chippindale Plant Limited"
"4","Flexo Furniture Ltd"
"4","Locale LTD"
"4","Neil Douglas Block Management"
"4","City Security Services Ltd – London"
"4","Telligo"
"4","Lifeplus Europe"
"4","East Anglia's Children's Hospices"
"4","Kerloch Oil Tools Limited"
"4","NRL"
"4","Yourway Transport Ltd"
"4","In Bloom Retail"
"4","Envisage Gardens"
"4","idverde"
"4","Rover.com"
"5","Bristow & Sutor"
"5","Speedy Hire PLC"
"5","Pro Lab Design"
"5","Harrowden Turf"
"5","Laundryheap Scout"
"5","The Yard"
"5","247 Airport Transfer"
"5","BPR GROUP EUROPE t/a Paper Round"
"5","Dukes AutoTech"
"5","DSV Road Ltd"
"5","Mayfair Casino Ltd"
"5","Blade & Rose ltd"
"5","XLN Telecom"
"5","Libertas"
"5","Union Street Technologies Limited"
"5","The GIGA Group"
"5","U Drive Ltd"
"5","Parkside Cars"
"5","Office Beverages"
"5","Spring Pharmacy"
"5","CORRECT FLOW ENGINEERING LTD"
"5","SWS UK"
"5","Páramo Ltd"
"5","Panda Coaches"
"5","Cygnet Health Care"
"5","Sasse Ltd"
"5","Patra Selections Ltd"
"5","Eden Motor Group"
"5","Kendall Cars Ltd"
"5","Day Cooper Day"
"5","Bellrock"
"6","HR GO Recruitment Chatham"
"6","Godiva Chocolatier, Inc"
"6","PPM Recruitment"
"6","Bright Little Stars Nursery"
"6","Laundryheap Limited"
"6","The Bevern Trust"
"6","Procam CP Limited"
"6","London Luxury Chauffeuring"
"6","Magicman"
"6","Porthaven Care Homes, Woodland Manor Care Home"
"7","Party Refresh"
"7","Tonkin Recovery Ltd"
"7","Jardine Motors Group"
"7","Waitrose & Partners"
"7","Central Taxis  Ltd"
"7","Ruh Dental"
"7","Bank of Ireland"
"7","City Circle UK Limited"
"7","Chuckling Goat LTD"
"7","CMD Recruitment Limited"
"7","RBK SERVICES & SUPPLIES UK LTD"
"7","The Chesterford Group"
"7","Public Administration International "
"8","UKME"
"8","Mayfair Homecare"
"8","Halfords"
"8","Connect Scaffolding Ltd"
"8","Specialist Hygiene Services Ltd"
"8","Richfords Fire & Flood"
"8","Perfect Placement UK Ltd"
"8","UBICO"
"9","Cinodent Ltd"
"9","UVA Uk"
"9","Aldi"
"9","San Carlo Restaurant Group"
"9","Guardian Environmental Services Limited"
"9","Merryhill Envirotec"
"9","Seajacks UK Ltd"
"9","DHL Global Forwarding"
"9","Deadline Despatch Ltd"
"9","PHS Group Limited"
"9","ZENITH LOGISTICS GROUP"
"9","Azure Hygiene"
"9","HFD Limited"
"9","Premier Cars"
"9","Just Eat"
"9","Hyde & Rowe"
"9","EHD LONDON"
"9","Catch22"
"9","Countrywide Grounds Maintenance"
"9","Generator Power"
"9","Jack Richards & Son Ltd"
"9","Mainland Catering Equipment Ltd"
"10","Canal & River Trust"
"10","Mert Global Ltd t/a Skybridge Holidays"
"10","MDC logistics"
"10","East London Textiles Ltd"
"10","Allways Taxis"
"10","Yard Sale Pizza"
"10","Narford Scaffolding Ltd"
"10","Berry Recruitment Ltd"
"10","ROEDEAN SCHOOL"
"10","Ron Smith Recycling Ltd"
"10","Crystal Display Systems Ltd"
"10","Go Green Taxis"
"10","Oranmore Precast Limited"
"10","Whitstable Taxi ltd"
"10","Gallery Direct"
"10","ALPYBUS SARL"
"10","Moran Logistics"
"10","Electrical & Gas Care Ltd"
"10","Clydebank & District TOARS Ltd"
"10","C4 Logistics"
"10","Alina Homecare   Disability Support"
"10","Rothwell's Cleaning Services Ltd"
"10","Budget Taxis"
"10","Speedy Fuels"
"10","Luke Barnett Dental Laboratory"
"10","Prodoor UK Ltd"
"10","Medequip Assistive Technology Ltd"
"10","Cascade Clamps UK Ltd"
"10","WCE AV"
"10","Abacus and Falmouth Ltd"
"10","Babcock"
"10","Venue Audio Visual"
"10","Alcofast ltd"
"10","S Jones Containers Ltd"
"10","Intercleanse Limited"
"10","Celestra"
"10","JRL Group LTD"
"10","BioMarsh Environmental"
"10","Cox Automotive"
"10","Arriva London"
"10","FDLL"
"10","CBSL   Communicate Group"
"10","SafeGroup"
"10","Carzam Ltd"
"10","Citron Hygiene Limited"
"10","Tailor Made Resources"
"10","Cartime"
"10","Carrington West"
"10","Circus Street"
"10","Metroline"
"10","ServiceMaster Ltd"
"10","Safety Revolution Ltd"
"10","Lexon UK Ltd."
"10","Turners  Ltd"
"10","Akcess CIC"
"10","Grant Palmer Limited"
"10","Restorations UK"
"10","New Earth Solutions"
"10","CWS"
"10","CWS Jobs"
"10","ACS Automotive Recruitment Consultancy"
"10","St George's Childcare"
"10","Cordant People"
"10","Fairalls  Limited"
"10","The Manor Preparatory School"
"10","APC   TRANS UK LOGISTICS LTD"
"10","Windsor Classics Ltd"
"10","Sodexo"
"10","Go Modular Technologies UK Limited"
"11","SMH Fleet Solutions"
"11","National Property Trade"
"11","Manor Tree Care Ltd"
"11","Kemp Recruitment Ltd"
"11","Go Zero   Providing a sustainable travel network"
"12","euroloo"
"12","Autohome Ltd"
"12","Tristar Worldwide"
"12","PSAV"
"13","GIST"
"13","Bath Bus Company Limited"
"13","J Ffrench Limited"
"13","EFS Global"
"13","W.G Davies  Ltd"
"14","Hiring Wizard"
"14","Northgate plc"
"15","DHL Supply Chain"
"15","John Davidson Pipes"
"15","Hitachi Construction Machinery UK"
"15","Two Rivers Care Home"
"16","easyStorage"
"16","Celerity ls"
"16","Clee Hill Plant Ltd"
"16","Dominos Pizza"
"16","Vanwise Group Limited"
"16","Competent Couriers"
"16","Apprenticeships TFL"
"16","Baker Hughes"
"17","Hearn's Coaches Ltd"
"17","Clearwell Mobility"
"17","Foodmove"
"17","Robins & Day"
"19","HungryPanda"
"20","Environ Property Services Ltd"
"20","Montgomery Distribution"
"20","Aspen Restoration "
"20","LAMBERT BROTHERS HAULAGE LTD"
"20","Toilets Plus Ltd"
"20","A.I.M Logistics Limited"
"21","GCU "
"22","Tesco"
"23","BMW Group Retail"
"23","TrustFord"
"23","Caterkwik Ltd"
"23","Auxillis"
"24","Shipley Transport"
"24","Lucketts"
"25","Deadline Logistics Ltd"
"26","MEMS Power Generation"
"27","Simply Waste Solutions"
"28","Natures Way Foods Ltd"
"28","Parker Car Service"
"29","Site Equip"
"30","Richmond's Coaches"
"30","Clarkes of London   Part of National Express"
"34","West Coast Motors"
"43","Atlas Courier Express UK"
"49","Ocado Group"
