<?xml version="1.0" encoding="UTF-8" standalone="no"?>
<!DOCTYPE svg PUBLIC "-//W3C//DTD SVG 1.1//EN"
 "http://www.w3.org/Graphics/SVG/1.1/DTD/svg11.dtd">
<!-- Generated by graphviz version 2.40.1 (20161225.0304)
 -->
<!-- Title: G Pages: 1 -->
<svg width="1126pt" height="578pt"
 viewBox="0.00 0.00 1125.96 578.00" xmlns="http://www.w3.org/2000/svg" xmlns:xlink="http://www.w3.org/1999/xlink">
<g id="graph0" class="graph" transform="scale(1 1) rotate(0) translate(4 574)">
<title>G</title>
<polygon fill="#ffffff" stroke="transparent" points="-4,4 -4,-574 1121.957,-574 1121.957,4 -4,4"/>
<!-- A0 -->
<g id="node1" class="node">
<title>A0</title>
<polygon fill="none" stroke="#000000" points="86,-434 86,-466 157,-466 157,-434 86,-434"/>
<text text-anchor="start" x="95.6595" y="-447" font-family="Helvetica,sans-Serif" font-size="10.00" fill="#000000">Base::XML </text>
<polygon fill="none" stroke="#000000" points="86,-414 86,-434 157,-434 157,-414 86,-414"/>
<polygon fill="none" stroke="#000000" points="86,-394 86,-414 157,-414 157,-394 86,-394"/>
</g>
<!-- A4 -->
<g id="node5" class="node">
<title>A4</title>
<polygon fill="none" stroke="#000000" points="0,-294 0,-326 242,-326 242,-294 0,-294"/>
<text text-anchor="start" x="9.5865" y="-307" font-family="Helvetica,sans-Serif" font-size="10.00" fill="#000000">Shared::Job::Totaljobs::TotaljobsGroup_NewXML </text>
<polygon fill="none" stroke="#000000" points="0,-274 0,-294 242,-294 242,-274 0,-274"/>
<polygon fill="none" stroke="#000000" points="0,-182 0,-274 242,-274 242,-182 0,-182"/>
<text text-anchor="start" x="72.094" y="-255" font-family="Helvetica,sans-Serif" font-size="10.00" fill="#000000"> tokenize_result_page</text>
<text text-anchor="start" x="76.5435" y="-243" font-family="Helvetica,sans-Serif" font-size="10.00" fill="#000000">get_split_categories</text>
<text text-anchor="start" x="87.381" y="-231" font-family="Helvetica,sans-Serif" font-size="10.00" fill="#000000">split_to_source</text>
<text text-anchor="start" x="81.818" y="-219" font-family="Helvetica,sans-Serif" font-size="10.00" fill="#000000">populate_location</text>
<text text-anchor="start" x="88.2065" y="-207" font-family="Helvetica,sans-Serif" font-size="10.00" fill="#000000"> populate_type</text>
<text text-anchor="start" x="91.267" y="-195" font-family="Helvetica,sans-Serif" font-size="10.00" fill="#000000">populate_title</text>
</g>
<!-- A0&#45;&gt;A4 -->
<g id="edge10" class="edge">
<title>A0&#45;&gt;A4</title>
<path fill="none" stroke="#000000" d="M121,-383.9578C121,-366.3458 121,-345.8064 121,-326.326"/>
<polygon fill="none" stroke="#000000" points="117.5001,-383.959 121,-393.9591 124.5001,-383.9591 117.5001,-383.959"/>
</g>
<!-- A1 -->
<g id="node2" class="node">
<title>A1</title>
<polygon fill="none" stroke="#000000" points="754,-434 754,-466 846,-466 846,-434 754,-434"/>
<text text-anchor="start" x="763.6065" y="-447" font-family="Helvetica,sans-Serif" font-size="10.00" fill="#000000">Base::XMLTwig </text>
<polygon fill="none" stroke="#000000" points="754,-414 754,-434 846,-434 846,-414 754,-414"/>
<polygon fill="none" stroke="#000000" points="754,-394 754,-414 846,-414 846,-394 754,-394"/>
</g>
<!-- A9 -->
<g id="node10" class="node">
<title>A9</title>
<polygon fill="none" stroke="#000000" points="778,-288 778,-320 988,-320 988,-288 778,-288"/>
<text text-anchor="start" x="787.9785" y="-301" font-family="Helvetica,sans-Serif" font-size="10.00" fill="#000000">Shared::Job::Totaljobs::Totaljobs_MPXML </text>
<polygon fill="none" stroke="#000000" points="778,-268 778,-288 988,-288 988,-268 778,-268"/>
<polygon fill="none" stroke="#000000" points="778,-188 778,-268 988,-268 988,-188 778,-188"/>
<text text-anchor="start" x="846.322" y="-249" font-family="Helvetica,sans-Serif" font-size="10.00" fill="#000000"> populate_salary</text>
<text text-anchor="start" x="836.874" y="-237" font-family="Helvetica,sans-Serif" font-size="10.00" fill="#000000">populate_description</text>
<text text-anchor="start" x="843.818" y="-225" font-family="Helvetica,sans-Serif" font-size="10.00" fill="#000000">populate_location</text>
<text text-anchor="start" x="851.596" y="-213" font-family="Helvetica,sans-Serif" font-size="10.00" fill="#000000">populate_type</text>
<text text-anchor="start" x="834.444" y="-201" font-family="Helvetica,sans-Serif" font-size="10.00" fill="#000000">analytics_param:&quot;red&quot;</text>
</g>
<!-- A1&#45;&gt;A9 -->
<g id="edge11" class="edge">
<title>A1&#45;&gt;A9</title>
<path fill="none" stroke="#000000" d="M821.3825,-384.6587C830.6279,-365.0542 841.6304,-341.7236 851.7622,-320.2393"/>
<polygon fill="none" stroke="#000000" points="818.0964,-383.4215 816.9966,-393.9591 824.4277,-386.4073 818.0964,-383.4215"/>
</g>
<!-- A2 -->
<g id="node3" class="node">
<title>A2</title>
<polygon fill="none" stroke="#000000" points="864,-434 864,-466 1066,-466 1066,-434 864,-434"/>
<text text-anchor="start" x="873.6035" y="-447" font-family="Helvetica,sans-Serif" font-size="10.00" fill="#000000">Base::Role::XMLTwig::SplitSourcesFilter </text>
<polygon fill="none" stroke="#000000" points="864,-414 864,-434 1066,-434 1066,-414 864,-414"/>
<polygon fill="none" stroke="#000000" points="864,-394 864,-414 1066,-414 1066,-394 864,-394"/>
</g>
<!-- A2&#45;&gt;A9 -->
<g id="edge12" class="edge">
<title>A2&#45;&gt;A9</title>
<path fill="none" stroke="#000000" d="M943.8751,-384.6587C934.7412,-365.0542 923.8712,-341.7236 913.8615,-320.2393"/>
<polygon fill="none" stroke="#000000" points="940.8124,-386.3727 948.2082,-393.9591 947.1575,-383.4165 940.8124,-386.3727"/>
</g>
<!-- A3 -->
<g id="node4" class="node">
<title>A3</title>
<polygon fill="none" stroke="#000000" points="404,-452 404,-484 590,-484 590,-452 404,-452"/>
<text text-anchor="start" x="413.935" y="-465" font-family="Helvetica,sans-Serif" font-size="10.00" fill="#000000">Base::Role::ClickTracking::TotalJobs </text>
<polygon fill="none" stroke="#000000" points="404,-420 404,-452 590,-452 590,-420 404,-420"/>
<text text-anchor="start" x="495.6105" y="-433" font-family="Helvetica,sans-Serif" font-size="10.00" fill="#000000"> </text>
<polygon fill="none" stroke="#000000" points="404,-376 404,-420 590,-420 590,-376 404,-376"/>
<text text-anchor="start" x="431.2265" y="-401" font-family="Helvetica,sans-Serif" font-size="10.00" fill="#000000"> analytics_param:&quot;WC.mc_id&quot;</text>
<text text-anchor="start" x="436.211" y="-389" font-family="Helvetica,sans-Serif" font-size="10.00" fill="#000000"> analytics_value:&quot;_adz_$id&quot;</text>
</g>
<!-- A3&#45;&gt;A4 -->
<g id="edge14" class="edge">
<title>A3&#45;&gt;A4</title>
<path fill="none" stroke="#000000" d="M394.5803,-389.5402C349.9881,-371.1985 297.4181,-348.5878 251,-326 248.1001,-324.5889 245.1735,-323.1439 242.2297,-321.6717"/>
<polygon fill="none" stroke="#000000" points="393.3893,-392.8345 403.9697,-393.3878 396.0436,-386.3573 393.3893,-392.8345"/>
</g>
<!-- A3&#45;&gt;A9 -->
<g id="edge13" class="edge">
<title>A3&#45;&gt;A9</title>
<path fill="none" stroke="#000000" d="M599.7664,-396.1445C651.567,-377.7259 714.7406,-353.1712 769,-326 772.7676,-324.1133 776.5689,-322.136 780.3806,-320.0902"/>
<polygon fill="none" stroke="#000000" points="598.4951,-392.8815 590.2311,-399.5115 600.8259,-399.4821 598.4951,-392.8815"/>
</g>
<!-- A5 -->
<g id="node6" class="node">
<title>A5</title>
<polygon fill="none" stroke="#000000" points="241,-100 241,-132 391,-132 391,-100 241,-100"/>
<text text-anchor="start" x="250.712" y="-113" font-family="Helvetica,sans-Serif" font-size="10.00" fill="#000000">UK::Job::Totaljobs_NewXML </text>
<polygon fill="none" stroke="#000000" points="241,-80 241,-100 391,-100 391,-80 241,-80"/>
<polygon fill="none" stroke="#000000" points="241,0 241,-80 391,-80 391,0 241,0"/>
<text text-anchor="start" x="272.3725" y="-61" font-family="Helvetica,sans-Serif" font-size="10.00" fill="#000000"> populate_company</text>
<text text-anchor="start" x="288.491" y="-49" font-family="Helvetica,sans-Serif" font-size="10.00" fill="#000000">populate_url</text>
<text text-anchor="start" x="280.7115" y="-37" font-family="Helvetica,sans-Serif" font-size="10.00" fill="#000000">populate_salary</text>
<text text-anchor="start" x="271.5435" y="-25" font-family="Helvetica,sans-Serif" font-size="10.00" fill="#000000">get_split_categories</text>
<text text-anchor="start" x="282.381" y="-13" font-family="Helvetica,sans-Serif" font-size="10.00" fill="#000000">split_to_source</text>
</g>
<!-- A4&#45;&gt;A5 -->
<g id="edge9" class="edge">
<title>A4&#45;&gt;A5</title>
<path fill="none" stroke="#000000" d="M203.045,-174.9003C217.8252,-160.6506 233.0917,-145.9321 247.4388,-132.1"/>
<polygon fill="none" stroke="#000000" points="200.6043,-172.3916 195.8344,-181.852 205.4628,-177.431 200.6043,-172.3916"/>
</g>
<!-- A6 -->
<g id="node7" class="node">
<title>A6</title>
<polygon fill="none" stroke="#000000" points="519,-76 519,-108 670,-108 670,-76 519,-76"/>
<text text-anchor="start" x="528.932" y="-89" font-family="Helvetica,sans-Serif" font-size="10.00" fill="#000000">UK::Job::Totaljobs_MP1XML </text>
<polygon fill="none" stroke="#000000" points="519,-56 519,-76 670,-76 670,-56 519,-56"/>
<polygon fill="none" stroke="#000000" points="519,-24 519,-56 670,-56 670,-24 519,-24"/>
<text text-anchor="start" x="548.374" y="-37" font-family="Helvetica,sans-Serif" font-size="10.00" fill="#000000">populate_description</text>
</g>
<!-- A7 -->
<g id="node8" class="node">
<title>A7</title>
<polygon fill="none" stroke="#000000" points="758,-70 758,-102 909,-102 909,-70 758,-70"/>
<text text-anchor="start" x="767.932" y="-83" font-family="Helvetica,sans-Serif" font-size="10.00" fill="#000000">UK::Job::Totaljobs_MP2XML </text>
<polygon fill="none" stroke="#000000" points="758,-50 758,-70 909,-70 909,-50 758,-50"/>
<polygon fill="none" stroke="#000000" points="758,-30 758,-50 909,-50 909,-30 758,-30"/>
</g>
<!-- A8 -->
<g id="node9" class="node">
<title>A8</title>
<polygon fill="none" stroke="#000000" points="967,-70 967,-102 1118,-102 1118,-70 967,-70"/>
<text text-anchor="start" x="976.932" y="-83" font-family="Helvetica,sans-Serif" font-size="10.00" fill="#000000">UK::Job::Totaljobs_MP3XML </text>
<polygon fill="none" stroke="#000000" points="967,-50 967,-70 1118,-70 1118,-50 967,-50"/>
<polygon fill="none" stroke="#000000" points="967,-30 967,-50 1118,-50 1118,-30 967,-30"/>
</g>
<!-- A9&#45;&gt;A6 -->
<g id="edge6" class="edge">
<title>A9&#45;&gt;A6</title>
<path fill="none" stroke="#000000" d="M772.8351,-182.3356C734.2913,-157.2622 692.288,-129.9382 658.6794,-108.0752"/>
<polygon fill="none" stroke="#000000" points="771.2248,-185.4635 781.5158,-187.9826 775.0419,-179.5957 771.2248,-185.4635"/>
</g>
<!-- A9&#45;&gt;A7 -->
<g id="edge7" class="edge">
<title>A9&#45;&gt;A7</title>
<path fill="none" stroke="#000000" d="M862.7966,-178.0352C855.8151,-151.7848 848.3151,-123.5846 842.5861,-102.0436"/>
<polygon fill="none" stroke="#000000" points="859.4895,-179.2181 865.4422,-187.9826 866.2543,-177.4189 859.4895,-179.2181"/>
</g>
<!-- A9&#45;&gt;A8 -->
<g id="edge8" class="edge">
<title>A9&#45;&gt;A8</title>
<path fill="none" stroke="#000000" d="M945.4899,-180.1125C968.1832,-153.2802 992.8166,-124.154 1011.5163,-102.0436"/>
<polygon fill="none" stroke="#000000" points="942.6191,-178.087 938.8339,-187.9826 947.9639,-182.6073 942.6191,-178.087"/>
</g>
<!-- A10 -->
<g id="node11" class="node">
<title>A10</title>
<polygon fill="none" stroke="#000000" points="371.914,-272 260.086,-272 260.086,-236 371.914,-236 371.914,-272"/>
<text text-anchor="middle" x="316" y="-251" font-family="Helvetica,sans-Serif" font-size="10.00" fill="#000000">totaljobs_mp0.conf</text>
</g>
<!-- A10&#45;&gt;A5 -->
<g id="edge1" class="edge">
<title>A10&#45;&gt;A5</title>
<path fill="none" stroke="#000000" d="M316,-235.9738C316,-214.3092 316,-176.5631 316,-142.1361"/>
<polygon fill="#000000" stroke="#000000" points="316,-132.0566 320.5001,-142.0566 316,-137.0566 316.0001,-142.0566 316.0001,-142.0566 316.0001,-142.0566 316,-137.0566 311.5001,-142.0567 316,-132.0566 316,-132.0566"/>
</g>
<!-- A11 -->
<g id="node12" class="node">
<title>A11</title>
<polygon fill="none" stroke="#000000" points="629.914,-272 518.086,-272 518.086,-236 629.914,-236 629.914,-272"/>
<text text-anchor="middle" x="574" y="-251" font-family="Helvetica,sans-Serif" font-size="10.00" fill="#000000">totaljobs_mp1.conf</text>
</g>
<!-- A11&#45;&gt;A6 -->
<g id="edge2" class="edge">
<title>A11&#45;&gt;A6</title>
<path fill="none" stroke="#000000" d="M575.9177,-235.9738C578.7778,-209.0886 584.2726,-157.4376 588.4577,-118.0978"/>
<polygon fill="#000000" stroke="#000000" points="589.5182,-108.1287 592.935,-118.5486 588.9893,-113.1006 588.4603,-118.0726 588.4603,-118.0726 588.4603,-118.0726 588.9893,-113.1006 583.9855,-117.5965 589.5182,-108.1287 589.5182,-108.1287"/>
</g>
<!-- A12 -->
<g id="node13" class="node">
<title>A12</title>
<polygon fill="none" stroke="#000000" points="759.914,-272 648.086,-272 648.086,-236 759.914,-236 759.914,-272"/>
<text text-anchor="middle" x="704" y="-251" font-family="Helvetica,sans-Serif" font-size="10.00" fill="#000000">totaljobs_mp2.conf</text>
</g>
<!-- A12&#45;&gt;A7 -->
<g id="edge3" class="edge">
<title>A12&#45;&gt;A7</title>
<path fill="none" stroke="#000000" d="M716.3691,-235.9738C736.033,-207.3162 775.0049,-150.5199 802.4732,-110.4886"/>
<polygon fill="#000000" stroke="#000000" points="808.149,-102.217 806.2016,-113.0086 805.32,-106.3398 802.4911,-110.4625 802.4911,-110.4625 802.4911,-110.4625 805.32,-106.3398 798.7806,-107.9165 808.149,-102.217 808.149,-102.217"/>
</g>
<!-- A13 -->
<g id="node14" class="node">
<title>A13</title>
<polygon fill="none" stroke="#000000" points="1117.914,-272 1006.086,-272 1006.086,-236 1117.914,-236 1117.914,-272"/>
<text text-anchor="middle" x="1062" y="-251" font-family="Helvetica,sans-Serif" font-size="10.00" fill="#000000">totaljobs_mp3.conf</text>
</g>
<!-- A13&#45;&gt;A8 -->
<g id="edge4" class="edge">
<title>A13&#45;&gt;A8</title>
<path fill="none" stroke="#000000" d="M1060.0823,-235.9738C1057.0783,-207.7359 1051.1678,-152.1774 1046.9211,-112.2579"/>
<polygon fill="#000000" stroke="#000000" points="1045.8529,-102.217 1051.3856,-111.6848 1046.3818,-107.1889 1046.9108,-112.1609 1046.9108,-112.1609 1046.9108,-112.1609 1046.3818,-107.1889 1042.4361,-112.6369 1045.8529,-102.217 1045.8529,-102.217"/>
</g>
<!-- A14 -->
<g id="node15" class="node">
<title>A14</title>
<polygon fill="none" stroke="#000000" points="500.3042,-272 389.6958,-272 389.6958,-236 500.3042,-236 500.3042,-272"/>
<text text-anchor="middle" x="445" y="-251" font-family="Helvetica,sans-Serif" font-size="10.00" fill="#000000">totaljobs_new.conf</text>
</g>
<!-- A14&#45;&gt;A5 -->
<g id="edge5" class="edge">
<title>A14&#45;&gt;A5</title>
<path fill="none" stroke="#000000" d="M432.6309,-235.9738C417.5101,-213.9373 390.9725,-175.2623 367.0278,-140.366"/>
<polygon fill="#000000" stroke="#000000" points="361.3261,-132.0566 370.6945,-137.7561 364.155,-136.1794 366.984,-140.3022 366.984,-140.3022 366.984,-140.3022 364.155,-136.1794 363.2735,-142.8482 361.3261,-132.0566 361.3261,-132.0566"/>
</g>
<!-- A15 -->
<g id="node16" class="node">
<title>A15</title>
<polygon fill="none" stroke="#000000" points="620.3492,-570 373.6508,-570 373.6508,-534 620.3492,-534 620.3492,-570"/>
<text text-anchor="middle" x="497" y="-549" font-family="Helvetica,sans-Serif" font-size="10.00" fill="#000000">Base::Role::ClickTracking::UrlTransform::Append</text>
</g>
<!-- A15&#45;&gt;A3 -->
<g id="edge15" class="edge">
<title>A15&#45;&gt;A3</title>
<path fill="none" stroke="#000000" d="M497,-523.8507C497,-511.9891 497,-497.7659 497,-484.0215"/>
<polygon fill="none" stroke="#000000" points="493.5001,-523.9984 497,-533.9985 500.5001,-523.9985 493.5001,-523.9984"/>
</g>
</g>
</svg>
