"1","AM FRESH"
"1","Four Seasons Health Care"
"1","Elsoms Seeds Ltd"
"1","Axiom Stone Solicitors"
"1","Tailoring and Alterations Tailors"
"1","Really Flexible Care"
"1","DOMINO'S PIZZA"
"1","Covance"
"1","CCA International"
"1","Thomas the Baker"
"1","Saks Apprenticeships"
"1","Meallmore Ltd.   St Olaf Care Home   Nairn"
"1","9ine"
"1","HCL Technologies"
"1","Michael Page UK"
"1","SPINAL HOMECARE"
"1","DUFF AND PHELPS, LLC"
"1","Verrolyne Services Ltd"
"1","Circus Dental Practice"
"1","BullionVault"
"1","Gearset"
"1","Engage Education"
"1","Wanis International Foods"
"1","Babcock"
"1","Annie Sloan Interiors"
"1","ZOUZOU TRAVEL LTD"
"1","Ellern Mede Centre for eating disorders ("
"1","Leidos"
"1","Caring Comes 1st Ltd"
"1","I Grunwerg Ltd"
"1","Northgate Public Services"
"1","Fashion Tailors Seamstress"
"1","Hutton Care Home"
"1","Twinglobe Care Limited"
"1","Audio Ltd"
"1","Brunos Care"
"1","Sovereign Housing"
"1","Accent Homes LTD"
"1","Rob McAlister Ltd"
"1","Metroline"
"1","i teachers"
"1","ImageFast Ltd"
"1","Swamp Circus Trust"
"1","Lowden Guitars Limited"
"1","Barchester Healthcare"
"1","Intelogy"
"1","First Central"
"1","The Army"
"1","Anns Nursing Care"
"1","GlobalStep"
"1","Bioquell UK Limited"
"1","CCL Solutions Group Ltd"
"1","Protect Line"
"2","Bloomsbury Football Academy"
"2","Universally Speaking"
"2","VesselsValue Ltd"
"2","Community Health & Eyecare Ltd"
"2","The Royal Masonic Benevolent Institution Care Company"
"2","Orchard Care Homes"
"2","Juicebaby"
"2","The Best Connection Employment Group"
"2","Euro Auctions"
"2","Calero MDSL"
"2","Autism at Kingwood"
"2","Chamonix Estates"
"2","Henry d'Abo Farming"
"2","Victoria Community Care Ltd"
"2","Ligtas Consultancy and Training"
"2","Metrica Recruitment"
"2","Page Personnel   UK"
"2","Huel"
"2","Gilbert Meher"
"2","Natures Way Foods Ltd"
"2","MAGG Group ltd"
"2","Alterations"
"2","The Launch Group"
"2","SmartSec Solutions"
"2","Karewell Homecare"
"2","Grand Station"
"2","Campus Industries"
"2","FRESHWAYS"
"2","Hamara Healthy Living Centre"
"2","Vapouriz Group Ltd"
"3","CHIKA'S Foods"
"3","TTEC"
"4","ASC American Sun Components"
"4","SpaMedica"
"4","Ellern Mede"
"4","DISCOVERY EDUCATION UK"
"4","Seven Resourcing"
"5","QinetiQ"
"6","Capax Resource Management UK LLP"
"9","Additional Resources UK Limited"
"9","Student Roost"
"10","Brake, the road safety charity"
"11","Vertex Pharmaceuticals"
"11","FTI Consulting, Inc."
