"1","Racecourse Service Station"
"1","Bury Lodge Care Home"
"1","Total Community Care"
"1","You Me sushi"
"1","The Meadows   Windmill Care"
"1","Juicebaby"
"1","Genflow"
"1","The Hilltop Cafe"
"1","GivingForce Limited"
"1","Orchard Care Homes"
"1","Kirkby Stephen Grammar School"
"1","Choice Care"
"1","Crystal Court Care Home"
"1","We are Lollipop"
"1","Coopland & Son  Ltd"
"1","Atelier Nursery Limited"
"1","Orchard Lodge Care Home "
"1","The Bicycle Bakery"
"1","Allerthorpe Golf & Country Park"
"1","NHS Professionals"
"1","New Modern Turkish Restaurant"
"1","Castle View retirement Village"
"1","Millers Vanguard"
"1","Buckland Care"
"1","Audley Group"
"1","H Plus Care Ltd"
"1","L'Emporio Fine Foods PUDSEY LEEDS"
"1","UK Border Force"
"1","Blazing Limited"
"1","Public Practice Recruitment Ltd"
"1","Hatzfeld Care Ltd"
"1","Meallmore Ltd.   Crimond House Care Home   Crimond, Aberdeenshire"
"1","RAPID RTC"
"1","Stratford Preparatory School"
"1","Rotherwood Group"
"1","The Marillac Neurological Care Centre"
"1","Willing Care Recruitment Limited"
"1","Fonthill Care "
"1","The Cornish Bakery"
"1","Mama Bear's Day Nursery"
"1","Mapleton Court Care Home, Grimethorpe"
"1","Gracewell Healthcare"
"1","Acorn Care and Education"
"1","Knight's Budgens Supermarkets"
"1","ONEFEE RECRUITMENT"
"1","Amica Care"
"1","Acorn Lodge Care Home"
"1","Gatsby & Miller"
"1","The Bourne Club"
"1","Abbey Gate College"
"1","CARE HOME"
"1","Spar Katesbridge Filling Station"
"1","Orange Acorn Taverns Ltd"
"1","Galos UK"
"1","Caring People Limited"
"2","Oak House  Ltd"
"2","Ashbury Labelling"
"2","FUTURE CARE GROUP"
"2","Tencreek Holiday Park"
"2","Hartford Care"
"2","Vantage Park Day Nursery"
"2","Lincolnshire Co operative"
"2","Healthcare Homes"
"2","Meaford fields day nursery ltd"
"2","Pegmar Ltd. St Annes Nursing Home."
"2","Chd Living"
"2","Kids Inc Nurseries"
"2","Raphael Group"
"2","The Gower School"
"2","Kiddi Galore"
"2","STFC"
"2","Tradewind"
"2","Vestige Healthcare Ltd"
"2","Ideal Homes Ltd"
"2","Cook and Thief"
"2","Age Gracefully Ltd"
"2","Chailey Heritage Foundation"
"2","Mint People"
"2","Oakland Care"
"2","St Christopher School"
"2","Catering retail"
"2","The BakeHouse"
"2","abm catering limited"
"2","Wholegood"
"3","Akari Care"
"3","Bow Garden and Aquatic Centre"
"3","Falcon House"
"3","Aquarius Care Home"
"3","Wanis International Foods"
"3","Jazz Cafe, Sandbanks"
"3","The Skinny Caffe/Beautylocks"
"3","Firepit Rocks"
"3","Nueve Tapas Bar"
"3","Mackays of Eyemouth"
"3","Mount Charles Group,"
"3","Ingham Old Hall"
"3","Yahmee"
"3","Sitel"
"3","Fennies Day Nurseries"
"3","The Leys Residential Home"
"3","Renaissance Care  Ltd"
"3","Kilimanjaro"
"3","Meallmore Ltd.   Kinmylies Mental Health Care Facility   Inverness"
"3","Olive Catering Services Ltd"
"3","Sannico Service Station"
"3","Moor House School"
"3","Heydays Care & Support Services LTD"
"3","Derwent Manor Hotel BW Premier Collection"
"3","Berry Recruitment Ltd"
"4","St Benedicts Nursing Home"
"4","Hutton Manor Care Home"
"4","THE PELICAN INN"
"4","Epiros UK Ltd"
"4","Horizon"
"4","Ashton House Nursing Home"
"4","Rastrick Hall and Lodge Care Home"
"4","Norfolk and Norwich Association for the Blind"
"4","Oaklands Residential Care Home"
"4","Finsbay Ventures"
"4","Denehurst Nursing Home"
"4","Pinewood Nursing Home"
"4","Care for Veterans"
"4","Penrose Court Care Home"
"4","The Orders of St John Care Trust"
"4","On Air Dining Ltd"
"4","Bethesda Healthcare Limited"
"4","HQ Hospitality: HQ Collection"
"4","Pendine Park Care Organisation"
"4","SUSHI GOURMET"
"4","The Catering Hire Company"
"4","Medcakes"
"5","St Georges Court Healthcare Ltd   Excelcare"
"5","Advinia Healthcare"
"5","Skinny Food Co"
"5","Coffee House"
"5","SeeWoo Foods"
"5","DOLCE LTD"
"5","Purezza"
"5","Del Fuoco"
"5","CASPAR"
"5","Birdscroft Nursing Home"
"6","Caron Group"
"6","Coombs Catering Partnership LTD"
"6","Berkeley Scott"
"6","Bell Plantation Garden Centre Ltd"
"6","Taster"
"7","Anchor Trust"
"7","Holmes Care Group"
"7","Le Montmartre"
"7","Cascade Events"
"7","Nellsar"
"7","Yard Sale Pizza"
"7","TQR Exeter Ltd"
"8","Poppy Lane Placements"
"8","Old School House"
"8","Abundant Grace"
"8","Hughes Food Enterprises Ltd"
"10","Young Friends Nature Nursery"
"10","Cordant People"
"10","CL Corperation Ltd"
"10","Randstad CPE"
"11","Bennett Hay"
"12","Page Personnel   UK"
"14","Punjab Pakora ltd"
"15","Blackwell Vale Care Home"
"16","Linc Cymru"
