"1","JG Pest Control"
"1","Caremark "
"1","Falco Private Office Ltd"
"1","HCL Technologies"
"1","AXA UK"
"1","Dorset Lifts"
"1","The Property Centre"
"1","Worldwide Education"
"1","Forest Health Care"
"1","Packshot Seven"
"1","Empiric Solutions"
"1","The Cambridgeshire Care Home"
"1","Amro Real Estate Partners"
"1","accomplish."
"1","Finixio"
"1","A1 Education Limited"
"1","experisuk"
"1","Quanta"
"1","Orbital Media"
"1","Kingston Court Care Home"
"1","Hot Ombre Cosmetics and Castaway Beauty"
"1","Metrica Recruitment"
"1","Look Ahead"
"1","Countrywide Electrical Distributors"
"1","Cortex IT Recruitment"
"1","CM Oxendale Ltd"
"1","Your Centre Ltd"
"1","ESP Fitness"
"1","TechnologyVs Ltd"
"1","Hudson Digital"
"1","Sovereign Housing"
"1","Passion Tree Care Services"
"1","PayPal"
"1","Burgoynes Lyonshall Ltd"
"1","AHDB"
"1","Banning Dental Group"
"1","NHS Professionals"
"1","Athlone Care"
"1","Innox Trading Ltd ta Chemist 4 u"
"1","2gether Support Solutions"
"1","Acquire Care Ltd"
"1","caronne care ltd"
"1","UK Border Force"
"1","Bell Plantation Garden Centre Ltd"
"1","TSYS"
"1","Jardine Motors Group"
"1","Porthaven Care Homes, Woodland Manor Care Home"
"1","SG Digital"
"1","RAPID RTC"
"1","Vospers Motor House Ltd"
"1","One YMCA"
"1","STFC"
"1","LGC Limited"
"1","Brevio"
"1","Greater Manchester LPC"
"1","KN Circet"
"1","ePac LLC"
"1","Whites Transport Ltd"
"1","Audley Group"
"1","Observational and Pragmatic Research Institute"
"1","Rise Technical Recruitment Limited"
"1","Players Publishing Limited"
"1","JewelleryMaker Limited"
"1","Key Group Services Ltd"
"1","Lowden Guitars Limited"
"1","9ine"
"1","Waypoints Verwood"
"1","Universal Web Design"
"1","Secure Funding"
"1","Blackrose Pubs"
"1","Meet Hugo"
"1","Jane Deane Recruitment Limited"
"1","Encore Estate Management"
"1","AGO OUTSOURCING"
"1","Apple"
"1","Redstone Search Group"
"1","Choice Care Group"
"1","WERCs"
"1","Allerthorpe Golf & Country Park"
"1","The Butterfly Patch"
"1","Fountains Care Centre "
"1","Innovatus Digital"
"1","iTutorGroup"
"2","Allsopp & Allsopp"
"2","Dignity UK"
"2","GlobalStep"
"2","Code Nation"
"2","Pandora"
"2","FTI Consulting, Inc."
"2","DECIEM   The Abnormal Beauty Company"
"2","JTL"
"2","Targeted Provision"
"2","Orchard Care Homes"
"2","Sainsbury’s DTD"
"2","Phillips "
"2","Content 10x"
"2","Swag Stores"
"2","Northgate Public Services"
"2","Age UK Hillingdon, Harrow & Brent"
"2","Supported Business Ltd"
"2","CCM"
"2","Page Personnel   UK"
"2","VesselsValue Ltd"
"2","Oilfield Production Consultants "
"2","Rutlands Ltd"
"2","Assist Care Group"
"2","Element 4 Group Ltd"
"2","The Army"
"2","Brandon Trust"
"2","Aster Healthcare Ltd"
"2","Valeo Management Europe"
"2","The Plug and Play Agency"
"2","Cirrus Response"
"2","EMC Medical Services"
"2","Optimal People & Business Services Ltd"
"2","The Good Marketer"
"2","Kids Operating Room"
"2","St Dominic's Ltd"
"2","IMMO Investment Technologies"
"2","DPD Group UK"
"2","Polly Symondson Recruitment Ltd"
"2","Vision for Education"
"2","Smartbreeder.com"
"2","ENA Care Group"
"2","Tanner Pharma Group"
"2","Amazon Flex"
"2","Cambridge Healthcare Research"
"2","Universally Speaking"
"2","Quick Release "
"2","Gatsby & Miller"
"2","Lockheed Martin Corporation"
"2","HOPSTER"
"2","Copper Promotions Ltd"
"3","Warden Agri"
"3","Intelogy"
"3","G&E Partners Ltd"
"3","First Central"
"3","Bruce & Butler Limited"
"3","J&C Joel"
"3","Imperium Global Search Ltd"
"3","Metroline"
"3","Coop"
"3","Kognitiv"
"3","Vertex Pharmaceuticals"
"3","Calero MDSL"
"3","The Royal Masonic Benevolent Institution Care Company"
"3","Begame Digital LTD"
"3","The Pied Piper Pest Control Company Ltd"
"3","Euro Auctions"
"3","SpaMedica"
"4","ARU Students' Union"
"4","Ligtas Consultancy and Training"
"4","Lifeplus Europe"
"4","Aone distribution"
"4","Home Instead Senior Care   Peterborough"
"5","Coach London"
"5","RUHI Enterprises Ltd."
"5","IOSH"
"5","Sitel"
"6","Capax Resource Management UK LLP"
"7","Independent Clinical Services"
"9","Hygiena"
"9","Engage Education"
"10","FJ Leafleting ltd"
"10","Kings cheese and wine"
"10","Welcome Estates"
"13","Pcnhelpline.com"
"14","Railbookers"
"34","Student Roost"
