<jobs>

  <job>
    <title><![CDATA[EMENA Financial Analyst]]></title>
    <id><![CDATA[1032904]]></id>
    <description><![CDATA[
  
   
    
      
   
   
    
     EMENA Financial Analyst  
   
   
    
    Katowice 
   
   
    
    Nr Ref. 1133798 
   
   
    
    Currently for our multinational Client located in Katowice we are looking for EMENA Financial Analyst (EMEA, Middle East and North Africa).  
 
Working on this position you will be responsible for daily cooperation with Plant Controllers located across the European sites providing financial support (sales analysis, production costs), budgeting, forecasting, recommendations for improving the business growth, preparing year end Statutory Accounts. Financial Analyst will assist month end close, journal entries to the system as well as cooperate with vendors (invoice processing, payments and others). You will also assist with Cash collections.   
 
We are looking for experienced, motivated Candidates with extensive financial knowledge (accountancy, audit, controlling) who like to take on new challenges in multinational environment (including travelling to European countries). The ideal Candidate should be communicative, open- minded and honest person with high- developed soft skills. Fluent English is a must (additional European language is a strong plus) as well as advanced computer skills. 
 
Our Client offers great opportunity to develop, be a part of multinational team and fantastic atmosphere at work. 
 
If you feel that this offer is for you, please do not hesitate apply for this role. We kindly inform that we will contact selected Candidates. 
   
   
    
     
      
       
        
         
          
           
            
             
              
               Aplikuj  
             
            
           
          
         
         
          
         Prosimy o dopisanie klauzuli: &quot;Wyrażam zgodę na przetwarzanie moich danych osobowych zawartych w ofercie pracy dla potrzeb procesu rekrutacji zgodnie z ustawą z dnia 27.08.1997r Dz. U. z 2002 r., Nr 101, poz. 923 ze zm.&quot; 
         
          
         
          hays.pl  
        
        
         
           
         
         &nbsp; 
        
       
      
     
    
   
  
 
 
 &nbsp; 
]]></description>
    <url><![CDATA[http://www.pracatobie.pl?p=1032904]]></url>
    <location><![CDATA[Katowice śląskie]]></location>
    <company><![CDATA[HAYS Poland Sp. z o.o.]]></company>
    <category><![CDATA[1]]></category>
  </job>
  <job>
    <title><![CDATA[Kasjer / kasjerka]]></title>
    <id><![CDATA[1071781]]></id>
    <description><![CDATA[
	 
		 
			 
				 
			 
			 
				 
					 
						 
							  Szukasz pracy na dłużej lub chcesz jedynie dorobić? Cenisz sobie elastyczny czas pracy i możliwość pogodzenia jej z nauką, życiem prywatnym, etatem? Mamy dla Ciebie idealną ofertę! 
 Jobman Group Sp. z o.o. - Agencja Pracy Tymczasowej działająca na podstawie wpisu do rejestru podmiotów prowadzących agencje zatrudnienia pod nr 2163, poszukuje osób chętnych do podjęcia pracy tymczasowej na stanowisku:  
						 
						 Kasjer / kasjerka 
						 
							Miejsce pracy:
																								Błonie
																					 
					 
					 
						  OBOWIĄZKI  
 Kasjer / kasjerka &#40;oferta pracy tymczasowej 
 Do Twoich zadań należeć będzie: - obsługa kasy fiskalnej - obsługa Klienta zgodnie ze standardami firmy 
					 
					 
						  WYMAGANIA  
 Szukamy właśnie Ciebie, jeśli:  - posiadasz orzeczenie do celów sanitarno - epidemiologicznych  
  - jesteś osobą pełnoletnią  
 - nie obawiasz się pracy z Klientem - jesteś osobą odpowiedzialną, pracowitą i rzetelną - dysponujesz choć odrobiną wolnego czasu 
					 
					 
						  ZAPEWNIAMY  
  - szkolenie kasjerskie - nie musisz mieć doświadczenia, wszystkiego Cię nauczymy  
 - umowę zlecenia 
 - elastyczny czas pracy - to Ty decydujesz, kiedy pracujesz i dzięki temu możesz pogodzić pracę z nauką, życiem prywatnym, etatem - obsługę administracyjną on-line - dostęp do konta, dzięki któremu wszystkie formalności załatwiasz bez wychodzenia z domu - program Strefa Aktywnych z możliwością wygrania atrakcyjnych nagród - możliwość refundacji badań sanepidu Praca dorywcza - praca dodatkowa - praca również dla studentów! 
  DODATKOWE INFORMACJE  
 Aplikacje powinny zawierać klauzulę: ’Na podstawie art. 7 ust. 1 RODO oświadczam, iż wyrażam zgodę na przetwarzanie przez administratora, którym jest Jobman Group Sp. z o.o. z siedzibą w Krakowie, ul. Bociana 22a, 31-231 Kraków moich danych osobowych w celu przeprowadzenia procedury rekrutacji na oferowane stanowisko. Mając na względzie, iż oferta dotyczy wykonywania pracy tymczasowej na rzecz pracodawcy użytkownika, którym jest klient Administratora, rozumiem i akceptuję fakt iż celem przeprowadzenia rekrutacji niezbędnym jest udostępnienie moich danych temu pracodawcy użytkownikowi.’ 
					 
					 
													 
								aplikuj teraz
							 
											 
				 
				 
					 Opublikowane przez:  
					   
				 
			 
		 
	 
]]></description>
    <url><![CDATA[http://www.pracatobie.pl?p=1071781]]></url>
    <location><![CDATA[Błonie mazowieckie]]></location>
    <company><![CDATA[Jobman Group sp. z o.o.]]></company>
    <category><![CDATA[17]]></category>
  </job>
  <job>
    <title><![CDATA[Brakarz/ brakarka]]></title>
    <id><![CDATA[1087186]]></id>
    <description><![CDATA[
 
	 
		 
			 
			 
				  MPS International Sp. z o.o.  
 Jesteśmy firmą o profilu produkcyjno-usługowym. Nasza historia sięga ponad 25 lat. Rozwijamy się w trzech strategicznych kierunkach: produkcji kosmetyków, opakowań z tworzyw sztucznych oraz środków czystości, od lat z sukcesem zaspokajając wymagania Klientów krajowych i zagranicznych. 
				  mps.koszalin.pl  
			 
			 
				 Opis oferty pracy 
				 Brakarz/ brakarka 
				 Miejsce pracy: Koszalin 
			 
			 
				  Twoje zadania:  
  sortowanie wyrobów gotowych 
 pakowanie wyrobów gotowych 
 
			 
			 
				  Nasze oczekiwania:  
  mile widziane doświadczenie w pracy na produkcji 
 gotowość do pracy w systemie czterobrygadowym, trzyzmianowy 
 dokładność, chęć do pracy 
 
			 
			 
				  Twoje korzyści:  
  umowa o pracę 
 stabilne warunki zatrudnienia 
 motywacyjny system premiowania 
 pakiet świadczeń socjalnych 
 wdrożenie do pracy pod okiem doświadczonego pracownika 
 
				  
				  
			 
			 
			 
								 
					 
				 
							 
		 
	 
		 
		 Opublikowane przez:  
		   
	 
	 
]]></description>
    <url><![CDATA[http://www.pracatobie.pl?p=1087186]]></url>
    <location><![CDATA[Koszalin zachodniopomorskie]]></location>
    <company><![CDATA[MPS International Sp. z o.o.]]></company>
    <category><![CDATA[29]]></category>
  </job>
  <job>
    <title><![CDATA[Analityk internetowy]]></title>
    <id><![CDATA[1087335]]></id>
    <description><![CDATA[
 
	  
      
	 
    	 
    	 
     
    	             
               ORIGEN Sp. z o.o. Sp.K. &#40;nr wpisu do rejestru Agencji Zatrudnienia: 15604&#41; dla swoich Klientów poszukuje osób do pracy na stanowisku:  
             
		         
        	 
            	 Analityk internetowy 
                             
         
         
             
	              Zakres obowiązków:  
  wyszukiwanie określonych informacji w internecie oraz ich weryfikacja w wewnętrznych systemach 
 wstawianie do excela informacji wg określonych kryteriów 
 wstawianie do excela linków i zdjęć w formie .jpg 
 poprawianie w systemach błędów znalezionych na konkretnych stronach internetowych 
 sprawdzanie i aktualizowanie danych w wewnętrznych systemach 
 
             
               
         
             
	              Od Kandydata/ki oczekujemy:  
   dobrej znajomości obsługi komputera i programów MS Word, MS Excel, mile widziana znajomość programów graficznych  
 umiejętności sprawnego posługiwania się klawiaturą oraz wyszukiwania informacji 
 zaangażowania w powierzone obowiązki, dokładności, precyzji 
 mile widziane: doświadczenie w pracy na stanowisku analityk internetowy 
 zachęcamy do aplikowania osoby z orzeczeniem o niepełnosprawności 
                
             
                
         
             
	              Oferujemy:  
  stabilne zatrudnienie w oparciu o umowę o pracę: pełen etat od poniedziałku do piątku z zachowaniem wszystkich uprawnień pracowniczych dla osób niepełnosprawnych 
 szkolenie wprowadzające 
    https://www.youtube.com/watch?v=KwhGDCFQnrA&amp;t=41s                
             
               
         
			
         
         
             
           	 
            		 
	            	            	 
	            		  Miejsce:  Miejscowość dowolna  
			                  
			            			                 
			           
	            	            	 
	             	
            
         
		 
		  
   	 
]]></description>
    <url><![CDATA[http://www.pracatobie.pl?p=1087335]]></url>
    <location><![CDATA[Miejscowość dowolna podlaskie]]></location>
    <company><![CDATA[ORIGEN Sp. z o.o. Sp. k.]]></company>
    <category><![CDATA[29]]></category>
  </job>
</jobs>
